{
    "_id": "d0nNIzVZe1f81aAg",
    "data": {
        "abilities": {
            "cha": {
                "mod": 7
            },
            "con": {
                "mod": 8
            },
            "dex": {
                "mod": 7
            },
            "int": {
                "mod": 6
            },
            "str": {
                "mod": 6
            },
            "wis": {
                "mod": 8
            }
        },
        "attributes": {
            "ac": {
                "details": "",
                "value": 37
            },
            "allSaves": {
                "value": null
            },
            "hp": {
                "details": "",
                "max": 280,
                "temp": 0,
                "value": 280
            },
            "initiative": {
                "ability": "perception"
            },
            "perception": {
                "value": 29
            },
            "shield": {
                "ac": 0,
                "brokenThreshold": 0,
                "hardness": 0,
                "max": 0,
                "value": 0
            },
            "speed": {
                "otherSpeeds": [
                    {
                        "type": "fly",
                        "value": "100"
                    }
                ],
                "value": "0"
            }
        },
        "details": {
            "alignment": {
                "value": "CN"
            },
            "blurb": "",
            "creatureType": "",
            "level": {
                "value": 15
            },
            "privateNotes": "",
            "publicNotes": "",
            "source": {
                "value": "Pathfinder Blog: April Fool's Besitary"
            }
        },
        "resources": {},
        "saves": {
            "fortitude": {
                "saveDetail": "",
                "value": 29
            },
            "reflex": {
                "saveDetail": "",
                "value": 28
            },
            "will": {
                "saveDetail": "",
                "value": 31
            }
        },
        "traits": {
            "attitude": {
                "value": "hostile"
            },
            "ci": [],
            "di": {
                "custom": "",
                "value": [
                    "indecision"
                ]
            },
            "dr": [
                {
                    "label": "Hunger",
                    "type": "hunger",
                    "value": "20"
                }
            ],
            "dv": [
                {
                    "label": "Any Diner Who Has A \"regular\" Order",
                    "type": "any diner who has a \"regular\" order"
                }
            ],
            "languages": {
                "custom": "Telepathy 1 mile",
                "selected": [],
                "value": [
                    "aklo",
                    "common",
                    "jotun"
                ]
            },
            "rarity": {
                "value": "uncommon"
            },
            "senses": {
                "value": "darkvision, hungersight"
            },
            "size": {
                "value": "lg"
            },
            "traits": {
                "custom": "",
                "value": [
                    "beast"
                ]
            }
        }
    },
    "effects": [],
    "flags": {},
    "img": "systems/pf2e/icons/default-icons/npc.svg",
    "items": [
        {
            "_id": "w64mGgzpaYg1RAbg",
            "data": {
                "attack": {
                    "value": ""
                },
                "attackEffects": {
                    "custom": "",
                    "value": [
                        "weredigo-torment"
                    ]
                },
                "bonus": {
                    "value": 29
                },
                "damageRolls": {
                    "3apuhd6n84pe1z5o1j8g": {
                        "damage": "3d10+14",
                        "damageType": "piercing"
                    }
                },
                "description": {
                    "value": ""
                },
                "rules": [],
                "slug": null,
                "source": {
                    "value": ""
                },
                "traits": {
                    "custom": "",
                    "rarity": {
                        "value": "common"
                    },
                    "value": [
                        "magical",
                        "reach 10 feet"
                    ]
                },
                "weaponType": {
                    "value": "melee"
                }
            },
            "effects": [],
            "flags": {},
            "img": "systems/pf2e/icons/default-icons/melee.svg",
            "name": "Jaws",
            "sort": 100000,
            "type": "melee"
        },
        {
            "_id": "BbdsFNbMDtMBdwVZ",
            "data": {
                "attack": {
                    "value": ""
                },
                "attackEffects": {
                    "value": [
                        "grab"
                    ]
                },
                "bonus": {
                    "value": 29
                },
                "damageRolls": {
                    "0s2nz0isbljlrmd6ppht": {
                        "damage": "3d6+14",
                        "damageType": "piercing"
                    }
                },
                "description": {
                    "value": ""
                },
                "rules": [],
                "slug": null,
                "source": {
                    "value": ""
                },
                "traits": {
                    "custom": "",
                    "rarity": {
                        "value": "common"
                    },
                    "value": [
                        "agile",
                        "reach-10"
                    ]
                },
                "weaponType": {
                    "value": "melee"
                }
            },
            "effects": [],
            "flags": {},
            "img": "systems/pf2e/icons/default-icons/melee.svg",
            "name": "Fork",
            "sort": 200000,
            "type": "melee"
        },
        {
            "_id": "LVjUvaGjXdcTQ2OM",
            "data": {
                "attack": {
                    "value": ""
                },
                "attackEffects": {
                    "value": []
                },
                "bonus": {
                    "value": 29
                },
                "damageRolls": {
                    "6u1ycfwjwow6xb3a2yd6": {
                        "damage": "3d6+14",
                        "damageType": "slashing"
                    }
                },
                "description": {
                    "value": ""
                },
                "rules": [],
                "slug": null,
                "source": {
                    "value": ""
                },
                "traits": {
                    "custom": "",
                    "rarity": {
                        "value": "common"
                    },
                    "value": [
                        "agile",
                        "reach 10 feet"
                    ]
                },
                "weaponType": {
                    "value": "melee"
                }
            },
            "effects": [],
            "flags": {},
            "img": "systems/pf2e/icons/default-icons/melee.svg",
            "name": "Knife",
            "sort": 300000,
            "type": "melee"
        },
        {
            "_id": "Xwyap8jGpoVEopa7",
            "data": {
                "actionCategory": {
                    "value": "interaction"
                },
                "actionType": {
                    "value": "passive"
                },
                "actions": {
                    "value": null
                },
                "description": {
                    "value": "<p>@Localize[PF2E.NPC.Abilities.Glossary.Darkvision]</p>"
                },
                "requirements": {
                    "value": ""
                },
                "rules": [],
                "slug": "darkvision",
                "source": {
                    "value": ""
                },
                "traits": {
                    "custom": "",
                    "rarity": {
                        "value": "common"
                    },
                    "value": []
                },
                "trigger": {
                    "value": ""
                },
                "weapon": {
                    "value": ""
                }
            },
            "effects": [],
            "flags": {
                "core": {
                    "sourceId": "Compendium.pf2e.bestiary-ability-glossary-srd.qCCLZhnp2HhP3Ex6"
                }
            },
            "img": "systems/pf2e/icons/actions/Passive.webp",
            "name": "Darkvision",
            "sort": 400000,
            "type": "action"
        },
        {
            "_id": "v6OFzpj6ZUBHYYW9",
            "data": {
                "actionCategory": {
                    "value": "interaction"
                },
                "actionType": {
                    "value": "passive"
                },
                "actions": {
                    "value": null
                },
                "description": {
                    "value": "<p>A weredigo can precisely sense peckish creatures.</p>"
                },
                "requirements": {
                    "value": ""
                },
                "rules": [],
                "slug": null,
                "source": {
                    "value": ""
                },
                "traits": {
                    "custom": "",
                    "rarity": {
                        "value": "common"
                    },
                    "value": [
                        "divination",
                        "primal"
                    ]
                },
                "trigger": {
                    "value": ""
                },
                "weapon": {
                    "value": ""
                }
            },
            "effects": [],
            "flags": {},
            "img": "systems/pf2e/icons/actions/Passive.webp",
            "name": "Hungersight",
            "sort": 500000,
            "type": "action"
        },
        {
            "_id": "yxb37QHZ4RqNpk63",
            "data": {
                "actionCategory": {
                    "value": "interaction"
                },
                "actionType": {
                    "value": "passive"
                },
                "actions": {
                    "value": null
                },
                "description": {
                    "value": "<p>A weredigo adds <em>@Compendium[pf2e.spells-srd.Create Food]{Create Food}</em>, <em>@Compendium[pf2e.spells-srd.Enhance Victuals]{Enhance Victuals}</em>, and <em>@Compendium[pf2e.spells-srd.Ghoulish Cravings]{Ghoulish Cravings}</em> to its coven's spells.</p>\n<p>In addition, a weredigo, wendigo, and hoodigo coven can perform a unique ritual to enter the dreams of a creature responsible for hosting an upcoming party and curse them incurable planning indecision.</p>\n<hr />\n<p>@Localize[PF2E.NPC.Abilities.Glossary.Coven]</p>"
                },
                "requirements": {
                    "value": ""
                },
                "rules": [],
                "slug": "coven",
                "source": {
                    "value": ""
                },
                "traits": {
                    "custom": "",
                    "rarity": {
                        "value": "common"
                    },
                    "value": [
                        "divination",
                        "mental",
                        "occult"
                    ]
                },
                "trigger": {
                    "value": ""
                },
                "weapon": {
                    "value": ""
                }
            },
            "effects": [],
            "flags": {
                "core": {
                    "sourceId": "Compendium.pf2e.bestiary-ability-glossary-srd.52CdldlWMiVTZk1F"
                }
            },
            "img": "systems/pf2e/icons/actions/Passive.webp",
            "name": "Coven",
            "sort": 600000,
            "type": "action"
        },
        {
            "_id": "Z2YFBhPR8PxcKF90",
            "data": {
                "actionCategory": {
                    "value": "interaction"
                },
                "actionType": {
                    "value": "passive"
                },
                "actions": {
                    "value": null
                },
                "description": {
                    "value": "<p>@Localize[PF2E.NPC.Abilities.Glossary.Telepathy]</p>"
                },
                "requirements": {
                    "value": ""
                },
                "rules": [],
                "slug": "telepathy",
                "source": {
                    "value": ""
                },
                "traits": {
                    "custom": "",
                    "rarity": {
                        "value": "common"
                    },
                    "value": [
                        "aura",
                        "divination",
                        "magical"
                    ]
                },
                "trigger": {
                    "value": ""
                },
                "weapon": {
                    "value": ""
                }
            },
            "effects": [],
            "flags": {
                "core": {
                    "sourceId": "Compendium.pf2e.bestiary-ability-glossary-srd.kdhbPaBMK1d1fpbA"
                }
            },
            "img": "systems/pf2e/icons/actions/Passive.webp",
            "name": "Telepathy (1 mile)",
            "sort": 700000,
            "type": "action"
        },
        {
            "_id": "MXZvzCgypC6fZYM6",
            "data": {
                "actionCategory": {
                    "value": "offensive"
                },
                "actionType": {
                    "value": "action"
                },
                "actions": {
                    "value": 2
                },
                "description": {
                    "value": "<p><strong>Requirements</strong> The weredigo is adjacent to two creatures that can't decide where to get brunch.</p>\n<p><strong>Effect</strong> The weredigo makes two fork Strikes and two knife Strikes against one of the adjacent creatures. These attacks don't count toward the weredigo's multiple attack penalty.</p>"
                },
                "requirements": {
                    "value": ""
                },
                "rules": [],
                "slug": null,
                "source": {
                    "value": ""
                },
                "traits": {
                    "custom": "",
                    "rarity": {
                        "value": "common"
                    },
                    "value": [
                        "curse",
                        "enchantment",
                        "mental",
                        "primal"
                    ]
                },
                "trigger": {
                    "value": ""
                },
                "weapon": {
                    "value": ""
                }
            },
            "effects": [],
            "flags": {},
            "img": "systems/pf2e/icons/actions/TwoActions.webp",
            "name": "Reduce Options",
            "sort": 800000,
            "type": "action"
        },
        {
            "_id": "4XrSYIpCKfBITNa3",
            "data": {
                "actionCategory": {
                    "value": "offensive"
                },
                "actionType": {
                    "value": "passive"
                },
                "actions": {
                    "value": null
                },
                "description": {
                    "value": "<p>A creature affected by weredigo torment can't recover beyond stage 1 until it has been restored to full HP.</p>\n<p><strong>Saving Throw</strong> <span data-pf2-check=\"will\" data-pf2-dc=\"35\" data-pf2-traits=\"curse,enchantment,mental,primal\" data-pf2-label=\"Weredigo Torment DC\" data-pf2-show-dc=\"gm\">Will</span>;</p>\n<p><strong>Stage 1</strong>@Compendium[pf2e.conditionitems.Stupefied]{Stupefied 4} (1 day);</p>\n<p><strong>Stage 2</strong> As stage 1 (1 day);</p>\n<p><strong>Stage 3</strong> The creature becomes permanently afflicted with analysis paralysis, unable to make even the simplest of dining decisions, absentmindedly sipping their water whenever asked for their order.</p>"
                },
                "requirements": {
                    "value": ""
                },
                "rules": [],
                "slug": null,
                "source": {
                    "value": ""
                },
                "traits": {
                    "custom": "",
                    "rarity": {
                        "value": "common"
                    },
                    "value": [
                        "curse",
                        "enchantment",
                        "mental",
                        "primal"
                    ]
                },
                "trigger": {
                    "value": ""
                },
                "weapon": {
                    "value": ""
                }
            },
            "effects": [],
            "flags": {},
            "img": "systems/pf2e/icons/actions/Passive.webp",
            "name": "Weredigo Torment",
            "sort": 900000,
            "type": "action"
        },
        {
            "_id": "6s0qKpsktuEdGlgX",
            "data": {
                "actionCategory": {
                    "value": "offensive"
                },
                "actionType": {
                    "value": "action"
                },
                "actions": {
                    "value": 1
                },
                "description": {
                    "value": "<p>@Localize[PF2E.NPC.Abilities.Glossary.Grab]</p>"
                },
                "requirements": {
                    "value": ""
                },
                "rules": [],
                "slug": "grab",
                "source": {
                    "value": ""
                },
                "traits": {
                    "custom": "",
                    "rarity": {
                        "value": "common"
                    },
                    "value": []
                },
                "trigger": {
                    "value": ""
                },
                "weapon": {
                    "value": ""
                }
            },
            "effects": [],
            "flags": {
                "core": {
                    "sourceId": "Compendium.pf2e.bestiary-ability-glossary-srd.Tkd8sH4pwFIPzqTr"
                }
            },
            "img": "systems/pf2e/icons/actions/OneAction.webp",
            "name": "Grab",
            "sort": 1000000,
            "type": "action"
        },
        {
            "_id": "1941EShc51HjcM3q",
            "data": {
                "description": {
                    "value": ""
                },
                "item": {
                    "value": 0
                },
                "mod": {
                    "value": 30
                },
                "proficient": {
                    "value": 0
                },
                "rules": [],
                "slug": null,
                "source": {
                    "value": ""
                },
                "traits": {
                    "custom": "",
                    "rarity": {
                        "value": "common"
                    },
                    "value": []
                }
            },
            "effects": [],
            "flags": {},
            "img": "systems/pf2e/icons/default-icons/lore.svg",
            "name": "Acrobatics",
            "sort": 1100000,
            "type": "lore"
        },
        {
            "_id": "LFGiC83nQfgp1yI7",
            "data": {
                "description": {
                    "value": ""
                },
                "item": {
                    "value": 0
                },
                "mod": {
                    "value": 30
                },
                "proficient": {
                    "value": 0
                },
                "rules": [],
                "slug": null,
                "source": {
                    "value": ""
                },
                "traits": {
                    "custom": "",
                    "rarity": {
                        "value": "common"
                    },
                    "value": []
                }
            },
            "effects": [],
            "flags": {},
            "img": "systems/pf2e/icons/default-icons/lore.svg",
            "name": "Intimidation",
            "sort": 1200000,
            "type": "lore"
        },
        {
            "_id": "xpbwAQyGKoyrg0LO",
            "data": {
                "description": {
                    "value": ""
                },
                "item": {
                    "value": 0
                },
                "mod": {
                    "value": 31
                },
                "proficient": {
                    "value": 0
                },
                "rules": [],
                "slug": null,
                "source": {
                    "value": ""
                },
                "traits": {
                    "custom": "",
                    "rarity": {
                        "value": "common"
                    },
                    "value": []
                }
            },
            "effects": [],
            "flags": {},
            "img": "systems/pf2e/icons/default-icons/lore.svg",
            "name": "Restaurant Lore",
            "sort": 1300000,
            "type": "lore"
        },
        {
            "_id": "4mTXktV5tcjoaEsh",
            "data": {
                "description": {
                    "value": ""
                },
                "item": {
                    "value": 0
                },
                "mod": {
                    "value": 31
                },
                "proficient": {
                    "value": 0
                },
                "rules": [],
                "slug": null,
                "source": {
                    "value": ""
                },
                "traits": {
                    "custom": "",
                    "rarity": {
                        "value": "common"
                    },
                    "value": []
                }
            },
            "effects": [],
            "flags": {},
            "img": "systems/pf2e/icons/default-icons/lore.svg",
            "name": "Society",
            "sort": 1400000,
            "type": "lore"
        }
    ],
    "name": "Weredigo",
    "token": {
        "disposition": -1,
        "height": 2,
        "img": "systems/pf2e/icons/default-icons/npc.svg",
        "name": "Weredigo",
        "width": 2
    },
    "type": "npc"
}
