{
    "_id": "LJmBnA2IYDBqQgRx",
    "data": {
        "boosts": {
            "0": {
                "value": [
                    "con",
                    "wis"
                ]
            },
            "1": {
                "value": [
                    "cha",
                    "con",
                    "dex",
                    "int",
                    "str",
                    "wis"
                ]
            }
        },
        "description": {
            "value": "<p>Within her magnificent museum demiplane, the sorcerer Hao Jin extracted and preserved countless sites and cultures. The demiplane's unraveling magic forced the Pathfinder Society to evacuate the many inhabitants recently, and you were among the refugees who returned to the Material Plane after centuries of isolation. Whether you joined the Society out of gratitude, curiosity, or desperation, you are hardened by your harrowing flight from your doomed home.</p>\n<p>Choose two ability boosts. One must be to <strong>Constitution</strong> or <strong>Wisdom</strong>, and one is a free ability boost.</p>\n<p>You're trained in the Medicine skill, plus a Lore skill related to the terrain you lived in while on the demiplane (such as Cave Lore or Desert Lore). You gain the @Compendium[pf2e.feats-srd.Assurance (Medicine)]{Assurance (Medicine)} skill feat.</p>\n<hr />\n<p><strong>Special</strong>: You can select this background only if you have earned credit for at least 5 First Edition scenarios from Season 10 of the Pathfinder Society organized play campaign.</p>"
        },
        "items": {
            "f7q19": {
                "id": "yPwVPu2QLhnx2gdB",
                "img": "systems/pf2e/icons/features/feats/feats.webp",
                "level": 1,
                "name": "Assurance (Medicine)",
                "pack": "pf2e.feats-srd"
            }
        },
        "rules": [],
        "source": {
            "value": "Organized Play Foundation"
        },
        "trainedLore": "<Terrain> Lore",
        "trainedSkills": {
            "custom": "",
            "value": [
                "med"
            ]
        },
        "traits": {
            "custom": "",
            "rarity": {
                "value": "common"
            },
            "value": []
        }
    },
    "effects": [],
    "flags": {},
    "img": "systems/pf2e/icons/default-icons/background.svg",
    "name": "Tapestry Refugee (Medicine)",
    "type": "background"
}
