{
    "_id": "hRwnNTMj7wa8S4Ji",
    "data": {
        "armor": {
            "value": 3
        },
        "baseItem": "hide-armor",
        "brokenThreshold": {
            "value": null
        },
        "bulkCapacity": {
            "value": ""
        },
        "category": "medium",
        "check": {
            "value": -2
        },
        "collapsed": {
            "value": false
        },
        "containerId": {
            "value": ""
        },
        "description": {
            "value": "<p>Stitched together from pieces of ghoul skin, this suit of <em>+1 </em><em>hide armor </em>grants you a +1 item bonus to saving throws against disease and paralysis and makes you immune to the paralysis of ghouls. <em>Ghoul hide</em> with a <em>resilient rune</em> increases the resilient rune's item bonus to saving throws against disease and paralysis by 1 (maximum +4).</p>\n<p><em>Ghoul hide</em> hisses with sibilant hatred at the touch of elves. When worn by a creature with the elf trait, the armor gains the noisy trait.</p>\n<hr />\n<p>Automatically applied effects:</p>\n<ul>\n<li>+1 item bonus to saving throws against disease and paralysis </li>\n</ul>"
        },
        "dex": {
            "value": 2
        },
        "equipped": {
            "value": false
        },
        "equippedBulk": {
            "value": "2"
        },
        "group": "leather",
        "hardness": {
            "value": null
        },
        "hp": {
            "value": null
        },
        "identification": {
            "misidentified": {},
            "status": "identified",
            "unidentified": {
                "data": {
                    "description": {
                        "value": ""
                    }
                },
                "img": "",
                "name": ""
            }
        },
        "invested": {
            "value": false
        },
        "level": {
            "value": 6
        },
        "maxHp": {
            "value": null
        },
        "negateBulk": {
            "value": "0"
        },
        "potency": {},
        "potencyRune": {
            "value": 1
        },
        "preciousMaterial": {
            "value": ""
        },
        "preciousMaterialGrade": {
            "value": ""
        },
        "price": {
            "value": "220 gp"
        },
        "propertyRune1": {
            "value": ""
        },
        "propertyRune2": {
            "value": ""
        },
        "propertyRune3": {
            "value": ""
        },
        "propertyRune4": {
            "value": ""
        },
        "quantity": {
            "value": 1
        },
        "resiliencyRune": {
            "value": ""
        },
        "rules": [
            {
                "key": "FlatModifier",
                "label": "Ghoul Hide (vs. disease & paralysis)",
                "predicate": {
                    "any": [
                        "disease",
                        "paralysis"
                    ]
                },
                "selector": "saving-throw",
                "type": "item",
                "value": 1
            }
        ],
        "size": {
            "value": "med"
        },
        "source": {
            "value": "Pathfinder Core Rulebook"
        },
        "speed": {
            "value": 0
        },
        "stackGroup": {
            "value": ""
        },
        "strength": {
            "value": 14
        },
        "traits": {
            "custom": "",
            "rarity": {
                "value": "uncommon"
            },
            "value": [
                "invested",
                "magical",
                "necromancy"
            ]
        },
        "usage": {
            "value": "wornarmor"
        },
        "weight": {
            "value": "3"
        }
    },
    "effects": [],
    "flags": {},
    "img": "systems/pf2e/icons/equipment/armor/specific-magic-armor/ghoul-hide.webp",
    "name": "Ghoul Hide",
    "type": "armor"
}
