{
    "_id": "jAKYIqG2BNO7yffJ",
    "data": {
        "armor": {
            "value": 4
        },
        "baseItem": "chain-mail",
        "brokenThreshold": {
            "value": 0
        },
        "bulkCapacity": {
            "value": ""
        },
        "category": "medium",
        "check": {
            "value": -2
        },
        "collapsed": {
            "value": false
        },
        "containerId": {
            "value": null
        },
        "description": {
            "value": "<p>Made of cobalt-colored steel rings that flow down the entire length of the garment, this <em>+1 resilient chain mail</em> includes an armored face covering. The armor is said to be based on the same armor once worn by Azure Leopard, one of Old-Mage Jatembe's magic warriors.</p>\n<hr />\n<p><strong>Activate</strong> <span class=\"pf2-icon\">2</span> command, envision;</p>\n<p><strong>Frequency</strong> once per day;</p>\n<p><strong>Effect</strong> You call upon the ferocity and grace of the leopard. The armor's rings flatten out to become a solid piece of flexible armor. You gain a +2 item bonus to Stealth checks and Intimidation checks to Demoralize, but take a -2 penalty to Diplomacy and Society checks.</p>\n<p>This lasts for 1 hour, but you can Activate the armor again to revert it back to its original form.</p>\n<p>@Compendium[pf2e.equipment-effects.Effect: Leopard's Armor]{Effect: Leopard's Armor}</p>"
        },
        "dex": {
            "value": 1
        },
        "equipped": {
            "value": false
        },
        "equippedBulk": {
            "value": "2"
        },
        "group": "chain",
        "hardness": {
            "value": 0
        },
        "hp": {
            "value": 0
        },
        "identification": {
            "misidentified": {},
            "status": "identified",
            "unidentified": {
                "data": {
                    "description": {
                        "value": ""
                    }
                },
                "img": "",
                "name": ""
            }
        },
        "invested": {
            "value": null
        },
        "level": {
            "value": 9
        },
        "maxHp": {
            "value": 0
        },
        "negateBulk": {
            "value": "0"
        },
        "potencyRune": {
            "value": 1
        },
        "preciousMaterial": {
            "value": null
        },
        "preciousMaterialGrade": {
            "value": null
        },
        "price": {
            "value": "700 gp"
        },
        "propertyRune1": {
            "value": ""
        },
        "propertyRune2": {
            "value": ""
        },
        "propertyRune3": {
            "value": ""
        },
        "propertyRune4": {
            "value": ""
        },
        "quantity": {
            "value": 1
        },
        "resiliencyRune": {
            "value": "resilient"
        },
        "rules": [],
        "size": {
            "value": "med"
        },
        "source": {
            "value": "Pathfinder #170: Spoken on the Song Wind"
        },
        "speed": {
            "value": -5
        },
        "stackGroup": {
            "value": ""
        },
        "strength": {
            "value": 16
        },
        "traits": {
            "custom": "",
            "rarity": {
                "value": "uncommon"
            },
            "value": [
                "flexible",
                "magical",
                "noisy",
                "transmutation"
            ]
        },
        "usage": {
            "value": "wornarmor"
        },
        "weight": {
            "value": "3"
        }
    },
    "effects": [],
    "flags": {},
    "img": "systems/pf2e/icons/default-icons/armor.svg",
    "name": "Leopard's Armor",
    "type": "armor"
}
