{
    "_id": "8S81RvynBS09rIOF",
    "data": {
        "MAP": {
            "value": ""
        },
        "baseItem": "scimitar",
        "bonus": {
            "value": 0
        },
        "bonusDamage": {
            "value": 0
        },
        "brokenThreshold": {
            "value": 0
        },
        "bulkCapacity": {
            "value": ""
        },
        "category": "martial",
        "collapsed": {
            "value": false
        },
        "containerId": {
            "value": null
        },
        "damage": {
            "damageType": "slashing",
            "dice": 1,
            "die": "d6",
            "value": ""
        },
        "description": {
            "value": "<p>This <em>+1 striking flaming scimitar</em> is always warm to the touch, nearly unbearably so. Lines of crackling flame radiate from carnelians affixed to its curved and blackened blade, and its pommel ends in a brilliant tassel of phoenix feathers. While you have a status bonus to at least one of your Speeds, your Strikes with this scimitar that deal fire damage gain a +2 status bonus to their fire damage. The status bonus increases to +3 if the weapon has a greater striking rune and +4 for major striking.</p>\n<p>@Compendium[pf2e.equipment-effects.Equipment Effect: South Wind's Scorch Song (Damage)]{Equipment Effect: South Wind's Scorch Song (Damage)}</p>\n<hr />\n<p><strong>Activate</strong> <span class=\"pf2-icon\">f</span> command (evocation, fire, magical)</p>\n<p><strong>Trigger</strong> Your spell deals fire damage to a creature;</p>\n<p><strong>Effect</strong> You gain a +10-foot status bonus to your Speed until the end of your next turn.</p>\n<p>@Compendium[pf2e.equipment-effects.Equipment Effect: South Wind's Scorch Song (Speed Boost)]{Equipment Effect: South Wind's Scorch Song (Speed Boost)}</p>"
        },
        "equipped": {
            "value": false
        },
        "equippedBulk": {
            "value": ""
        },
        "group": "sword",
        "hands": {
            "value": false
        },
        "hardness": {
            "value": 0
        },
        "hp": {
            "value": 0
        },
        "identification": {
            "misidentified": {},
            "status": "identified",
            "unidentified": {
                "data": {
                    "description": {
                        "value": ""
                    }
                },
                "img": "",
                "name": ""
            }
        },
        "invested": {
            "value": null
        },
        "level": {
            "value": 10
        },
        "maxHp": {
            "value": 0
        },
        "negateBulk": {
            "value": "0"
        },
        "potencyRune": {
            "value": 1
        },
        "preciousMaterial": {
            "value": null
        },
        "preciousMaterialGrade": {
            "value": null
        },
        "price": {
            "value": "900 gp"
        },
        "property1": {
            "critDamage": "",
            "critDamageType": "",
            "critDice": 0,
            "critDie": "",
            "criticalConditionType": "",
            "criticalConditionValue": null,
            "damageType": "",
            "dice": 0,
            "die": "",
            "strikeConditionType": "",
            "strikeConditionValue": null,
            "value": ""
        },
        "propertyRune1": {
            "value": "flaming"
        },
        "propertyRune2": {
            "value": null
        },
        "propertyRune3": {
            "value": null
        },
        "propertyRune4": {
            "value": null
        },
        "quantity": {
            "value": 1
        },
        "range": null,
        "reload": {
            "value": ""
        },
        "rules": [],
        "size": {
            "value": "med"
        },
        "source": {
            "value": "Pathfinder Secrets of Magic"
        },
        "specific": {
            "material": null,
            "runes": {
                "potency": 1,
                "striking": "striking"
            },
            "value": true
        },
        "splashDamage": {
            "value": 0
        },
        "stackGroup": {
            "value": ""
        },
        "strikingRune": {
            "value": "striking"
        },
        "traits": {
            "custom": "",
            "rarity": {
                "value": "uncommon"
            },
            "value": [
                "evocation",
                "fire",
                "forceful",
                "magical",
                "sweep"
            ]
        },
        "usage": {
            "value": "held-in-one-hand"
        },
        "weight": {
            "value": "-"
        }
    },
    "effects": [],
    "flags": {},
    "img": "systems/pf2e/icons/default-icons/weapon.svg",
    "name": "South Wind's Scorch Song",
    "type": "weapon"
}
