{
    "_id": "zgZoI7h0XjjJrrNK",
    "description": "Table for Hero Point Cards",
    "displayRoll": true,
    "flags": {},
    "formula": "1d52",
    "img": "icons/svg/d20-grey.svg",
    "name": "Hero Point Deck",
    "permission": {
        "default": 0
    },
    "replacement": true,
    "results": [
        {
            "_id": "3NmrSpqathNiCteC",
            "collection": "pf2e.hero-point-deck",
            "drawn": false,
            "flags": {},
            "img": "icons/svg/d20-black.svg",
            "range": [
                1,
                1
            ],
            "rangeH": 1,
            "rangeL": 1,
            "resultId": "8d7KQtHz1kYxvRIa",
            "text": "Ancestral Might",
            "type": 2,
            "weight": 1
        },
        {
            "_id": "GrPpdvgwHSfqb8xn",
            "collection": "pf2e.hero-point-deck",
            "drawn": false,
            "flags": {},
            "img": "icons/svg/d20-black.svg",
            "range": [
                2,
                2
            ],
            "rangeH": 2,
            "rangeL": 2,
            "resultId": "vWyxxVDHSBWMtsJN",
            "text": "Aura of Protection",
            "type": 2,
            "weight": 1
        },
        {
            "_id": "iCGtHe9s3rRcST34",
            "collection": "pf2e.hero-point-deck",
            "drawn": false,
            "flags": {},
            "img": "icons/svg/d20-black.svg",
            "range": [
                3,
                3
            ],
            "rangeH": 3,
            "rangeL": 3,
            "resultId": "1We96Iyv6MkFvEN8",
            "text": "Battle Cry",
            "type": 2,
            "weight": 1
        },
        {
            "_id": "Z3ip4Wk8Ry0Zhx2Z",
            "collection": "pf2e.hero-point-deck",
            "drawn": false,
            "flags": {},
            "img": "icons/svg/d20-black.svg",
            "range": [
                4,
                4
            ],
            "rangeH": 4,
            "rangeL": 4,
            "resultId": "DGoCx0xl47vL2oOY",
            "text": "Called Foe",
            "type": 2,
            "weight": 1
        },
        {
            "_id": "mPXXEQ5P5MyOCXrt",
            "collection": "pf2e.hero-point-deck",
            "drawn": false,
            "flags": {},
            "img": "icons/svg/d20-black.svg",
            "range": [
                5,
                5
            ],
            "rangeH": 5,
            "rangeL": 5,
            "resultId": "2zFd5Huu1Yf8RDFE",
            "text": "Catch your Breath",
            "type": 2,
            "weight": 1
        },
        {
            "_id": "r3Oy8qBCZPHyZrLT",
            "collection": "pf2e.hero-point-deck",
            "drawn": false,
            "flags": {},
            "img": "icons/svg/d20-black.svg",
            "range": [
                6,
                6
            ],
            "rangeH": 6,
            "rangeL": 6,
            "resultId": "hhzrxLk2HBc2RYj3",
            "text": "Channel Life Force",
            "type": 2,
            "weight": 1
        },
        {
            "_id": "p0Xuu2Q9rM53Tr3C",
            "collection": "pf2e.hero-point-deck",
            "drawn": false,
            "flags": {},
            "img": "icons/svg/d20-black.svg",
            "range": [
                7,
                7
            ],
            "rangeH": 7,
            "rangeL": 7,
            "resultId": "F39gVP1gj2NVWgLD",
            "text": "Class Might",
            "type": 2,
            "weight": 1
        },
        {
            "_id": "MnRnPpgKoK7dl929",
            "collection": "pf2e.hero-point-deck",
            "drawn": false,
            "flags": {},
            "img": "icons/svg/d20-black.svg",
            "range": [
                8,
                8
            ],
            "rangeH": 8,
            "rangeL": 8,
            "resultId": "ftJgbv638qcidZk0",
            "text": "Critical Moment",
            "type": 2,
            "weight": 1
        },
        {
            "_id": "3jVInpIZJbGAilaU",
            "collection": "pf2e.hero-point-deck",
            "drawn": false,
            "flags": {},
            "img": "icons/svg/d20-black.svg",
            "range": [
                9,
                9
            ],
            "rangeH": 9,
            "rangeL": 9,
            "resultId": "jzsxn0vnoWD41AkQ",
            "text": "Cut Through the Fog",
            "type": 2,
            "weight": 1
        },
        {
            "_id": "B9NThtHFDZh3Txnz",
            "collection": "pf2e.hero-point-deck",
            "drawn": false,
            "flags": {},
            "img": "icons/svg/d20-black.svg",
            "range": [
                10,
                10
            ],
            "rangeH": 10,
            "rangeL": 10,
            "resultId": "zNcR1B6R6clmiFLM",
            "text": "Daring Attempt",
            "type": 2,
            "weight": 1
        },
        {
            "_id": "MTrDRyUfv0qE73SK",
            "collection": "pf2e.hero-point-deck",
            "drawn": false,
            "flags": {},
            "img": "icons/svg/d20-black.svg",
            "range": [
                11,
                11
            ],
            "rangeH": 11,
            "rangeL": 11,
            "resultId": "im7c5Vs4dXSN7383",
            "text": "Desperate Swing",
            "type": 2,
            "weight": 1
        },
        {
            "_id": "4Nj1y7m7N5HgoGmZ",
            "collection": "pf2e.hero-point-deck",
            "drawn": false,
            "flags": {},
            "img": "icons/svg/d20-black.svg",
            "range": [
                12,
                12
            ],
            "rangeH": 12,
            "rangeL": 12,
            "resultId": "XREJxXH5jWesYqoO",
            "text": "Distract Foe",
            "type": 2,
            "weight": 1
        },
        {
            "_id": "5HtV19duTmQ7GK3S",
            "collection": "pf2e.hero-point-deck",
            "drawn": false,
            "flags": {},
            "img": "icons/svg/d20-black.svg",
            "range": [
                13,
                13
            ],
            "rangeH": 13,
            "rangeL": 13,
            "resultId": "RulRBISL4S1xVyVg",
            "text": "Drain Power",
            "type": 2,
            "weight": 1
        },
        {
            "_id": "oT667PwfbG01Hbi2",
            "collection": "pf2e.hero-point-deck",
            "drawn": false,
            "flags": {},
            "img": "icons/svg/d20-black.svg",
            "range": [
                14,
                14
            ],
            "rangeH": 14,
            "rangeL": 14,
            "resultId": "UUDBSBzK4W5FP8je",
            "text": "Dive Out of Danger",
            "type": 2,
            "weight": 1
        },
        {
            "_id": "WKbpXwwkTTBmWwxr",
            "collection": "pf2e.hero-point-deck",
            "drawn": false,
            "flags": {},
            "img": "icons/svg/d20-black.svg",
            "range": [
                15,
                15
            ],
            "rangeH": 15,
            "rangeL": 15,
            "resultId": "1VbuhRzlKWPfcBpq",
            "text": "Endure the Onslaught",
            "type": 2,
            "weight": 1
        },
        {
            "_id": "BmouhP7zK1N3ugX1",
            "collection": "pf2e.hero-point-deck",
            "drawn": false,
            "flags": {},
            "img": "icons/svg/d20-black.svg",
            "range": [
                16,
                16
            ],
            "rangeH": 16,
            "rangeL": 16,
            "resultId": "mpiUTv0lciVJkdqr",
            "text": "Flash of Insight",
            "type": 2,
            "weight": 1
        },
        {
            "_id": "SAVhKpkVH3qDNzal",
            "collection": "pf2e.hero-point-deck",
            "drawn": false,
            "flags": {},
            "img": "icons/svg/d20-black.svg",
            "range": [
                17,
                17
            ],
            "rangeH": 17,
            "rangeL": 17,
            "resultId": "GOafyVMF9ZkCuB3G",
            "text": "Fluid Motion",
            "type": 2,
            "weight": 1
        },
        {
            "_id": "ylj2wTl19TTCkvbu",
            "collection": "pf2e.hero-point-deck",
            "drawn": false,
            "flags": {},
            "img": "icons/svg/d20-black.svg",
            "range": [
                18,
                18
            ],
            "rangeH": 18,
            "rangeL": 18,
            "resultId": "u3l38345DtCb1zrg",
            "text": "Grazing Blow",
            "type": 2,
            "weight": 1
        },
        {
            "_id": "0yASKFUpd2HNORBt",
            "collection": "pf2e.hero-point-deck",
            "drawn": false,
            "flags": {},
            "img": "icons/svg/d20-black.svg",
            "range": [
                19,
                19
            ],
            "rangeH": 19,
            "rangeL": 19,
            "resultId": "WfrKztGAK8Xthk02",
            "text": "Hasty Block",
            "type": 2,
            "weight": 1
        },
        {
            "_id": "QtQV5GwfMOS3Bb0D",
            "collection": "pf2e.hero-point-deck",
            "drawn": false,
            "flags": {},
            "img": "icons/svg/d20-black.svg",
            "range": [
                20,
                20
            ],
            "rangeH": 20,
            "rangeL": 20,
            "resultId": "PPViJTXbCAKWSl0X",
            "text": "Healing Prayer",
            "type": 2,
            "weight": 1
        },
        {
            "_id": "0A42Q6W3ERIaYWKZ",
            "collection": "pf2e.hero-point-deck",
            "drawn": false,
            "flags": {},
            "img": "icons/svg/d20-black.svg",
            "range": [
                21,
                21
            ],
            "rangeH": 21,
            "rangeL": 21,
            "resultId": "FB7WRjQkNnCROiH8",
            "text": "Hold the Line",
            "type": 2,
            "weight": 1
        },
        {
            "_id": "zYT3DXtBhTPp4TQV",
            "collection": "pf2e.hero-point-deck",
            "drawn": false,
            "flags": {},
            "img": "icons/svg/d20-black.svg",
            "range": [
                22,
                22
            ],
            "rangeH": 22,
            "rangeL": 22,
            "resultId": "0MLuHRkOADrmm7Fa",
            "text": "I Hope This Works",
            "type": 2,
            "weight": 1
        },
        {
            "_id": "hMvuZBsPACAqIErN",
            "collection": "pf2e.hero-point-deck",
            "drawn": false,
            "flags": {},
            "img": "icons/svg/d20-black.svg",
            "range": [
                23,
                23
            ],
            "rangeH": 23,
            "rangeL": 23,
            "resultId": "MSza9gUg7xQfGQnk",
            "text": "Impossible Shot",
            "type": 2,
            "weight": 1
        },
        {
            "_id": "TgGvhl7ho5pFqRUn",
            "collection": "pf2e.hero-point-deck",
            "drawn": false,
            "flags": {},
            "img": "icons/svg/d20-black.svg",
            "range": [
                24,
                24
            ],
            "rangeH": 24,
            "rangeL": 24,
            "resultId": "v2kZImaT1rE6Y1aN",
            "text": "Last Ounce of Strength",
            "type": 2,
            "weight": 1
        },
        {
            "_id": "gTtvnnXIIWvI4H1q",
            "collection": "pf2e.hero-point-deck",
            "drawn": false,
            "flags": {},
            "img": "icons/svg/d20-black.svg",
            "range": [
                25,
                25
            ],
            "rangeH": 25,
            "rangeL": 25,
            "resultId": "atIE8EmiN38wh8wx",
            "text": "Last Second Sidestep",
            "type": 2,
            "weight": 1
        },
        {
            "_id": "JrAPVtmPvayppcfl",
            "collection": "pf2e.hero-point-deck",
            "drawn": false,
            "flags": {},
            "img": "icons/svg/d20-black.svg",
            "range": [
                26,
                26
            ],
            "rangeH": 26,
            "rangeL": 26,
            "resultId": "4Lvb1JdWFgDyp58P",
            "text": "Last Stand",
            "type": 2,
            "weight": 1
        },
        {
            "_id": "uB8fu3pf1OBFbbNe",
            "collection": "pf2e.hero-point-deck",
            "drawn": false,
            "flags": {},
            "img": "icons/svg/d20-black.svg",
            "range": [
                27,
                27
            ],
            "rangeH": 27,
            "rangeL": 27,
            "resultId": "HEbxDXXFXDTWAitt",
            "text": "Magical Reverberation",
            "type": 2,
            "weight": 1
        },
        {
            "_id": "KcGgcMolDZsYvrVz",
            "collection": "pf2e.hero-point-deck",
            "drawn": false,
            "flags": {},
            "img": "icons/svg/d20-black.svg",
            "range": [
                28,
                28
            ],
            "rangeH": 28,
            "rangeL": 28,
            "resultId": "PdE41wSjGDbIrGzG",
            "text": "Make Way!",
            "type": 2,
            "weight": 1
        },
        {
            "_id": "aLFQaMT3wp4VNObE",
            "collection": "pf2e.hero-point-deck",
            "drawn": false,
            "flags": {},
            "img": "icons/svg/d20-black.svg",
            "range": [
                29,
                29
            ],
            "rangeH": 29,
            "rangeL": 29,
            "resultId": "rvfUqrWM1zFzPBUk",
            "text": "Misdirected Attack",
            "type": 2,
            "weight": 1
        },
        {
            "_id": "7uCQfhmf7hF2ZXCY",
            "collection": "pf2e.hero-point-deck",
            "drawn": false,
            "flags": {},
            "img": "icons/svg/d20-black.svg",
            "range": [
                30,
                30
            ],
            "rangeH": 30,
            "rangeL": 30,
            "resultId": "lF8Zm7y4U3nT1q3w",
            "text": "Opportune Distraction",
            "type": 2,
            "weight": 1
        },
        {
            "_id": "MtSG1qm4hCbiJaG3",
            "collection": "pf2e.hero-point-deck",
            "drawn": false,
            "flags": {},
            "img": "icons/svg/d20-black.svg",
            "range": [
                31,
                31
            ],
            "rangeH": 31,
            "rangeL": 31,
            "resultId": "L8W1qzHJgRor97RC",
            "text": "Pierce Resistance",
            "type": 2,
            "weight": 1
        },
        {
            "_id": "aVV8jCOq54t4Z7zs",
            "collection": "pf2e.hero-point-deck",
            "drawn": false,
            "flags": {},
            "img": "icons/svg/d20-black.svg",
            "range": [
                32,
                32
            ],
            "rangeH": 32,
            "rangeL": 32,
            "resultId": "MMOfg6GP9fhCCbep",
            "text": "Press On",
            "type": 2,
            "weight": 1
        },
        {
            "_id": "WmPJyIhovGNMCRct",
            "collection": "pf2e.hero-point-deck",
            "drawn": false,
            "flags": {},
            "img": "icons/svg/d20-black.svg",
            "range": [
                33,
                33
            ],
            "rangeH": 33,
            "rangeL": 33,
            "resultId": "O2oSUauTcoBXcv42",
            "text": "Protect the Innocent",
            "type": 2,
            "weight": 1
        },
        {
            "_id": "mBp8RTpJMZ4eyUfM",
            "collection": "pf2e.hero-point-deck",
            "drawn": false,
            "flags": {},
            "img": "icons/svg/d20-black.svg",
            "range": [
                34,
                34
            ],
            "rangeH": 34,
            "rangeL": 34,
            "resultId": "W07rvt5FRZQ7Uwl7",
            "text": "Push Through the Pain",
            "type": 2,
            "weight": 1
        },
        {
            "_id": "EN50GcGBdwZtTvrR",
            "collection": "pf2e.hero-point-deck",
            "drawn": false,
            "flags": {},
            "img": "icons/svg/d20-black.svg",
            "range": [
                35,
                35
            ],
            "rangeH": 35,
            "rangeL": 35,
            "resultId": "0CPZ672t3F462vTh",
            "text": "Rage and Fury",
            "type": 2,
            "weight": 1
        },
        {
            "_id": "KqrVdRpQhzSP1ATg",
            "collection": "pf2e.hero-point-deck",
            "drawn": false,
            "flags": {},
            "img": "icons/svg/d20-black.svg",
            "range": [
                36,
                36
            ],
            "rangeH": 36,
            "rangeL": 36,
            "resultId": "rB2othihPTaTf57h",
            "text": "Rampage",
            "type": 2,
            "weight": 1
        },
        {
            "_id": "5l2zkP8nCkTCV8Aj",
            "collection": "pf2e.hero-point-deck",
            "drawn": false,
            "flags": {},
            "img": "icons/svg/d20-black.svg",
            "range": [
                37,
                37
            ],
            "rangeH": 37,
            "rangeL": 37,
            "resultId": "6Vnr4v3SspJH87lQ",
            "text": "Reckless Charge",
            "type": 2,
            "weight": 1
        },
        {
            "_id": "uZNw5HZGz7mjldbV",
            "collection": "pf2e.hero-point-deck",
            "drawn": false,
            "flags": {},
            "img": "icons/svg/d20-black.svg",
            "range": [
                38,
                38
            ],
            "rangeH": 38,
            "rangeL": 38,
            "resultId": "PqRUEduLDwObHntx",
            "text": "Rending Swipe",
            "type": 2,
            "weight": 1
        },
        {
            "_id": "6VqVFgWDBJs06Rrb",
            "collection": "pf2e.hero-point-deck",
            "drawn": false,
            "flags": {},
            "img": "icons/svg/d20-black.svg",
            "range": [
                39,
                39
            ],
            "rangeH": 39,
            "rangeL": 39,
            "resultId": "cgoOcef3miRd16bt",
            "text": "Reverse Strike",
            "type": 2,
            "weight": 1
        },
        {
            "_id": "zsQQ9FRgXq3JSGi4",
            "collection": "pf2e.hero-point-deck",
            "drawn": false,
            "flags": {},
            "img": "icons/svg/d20-black.svg",
            "range": [
                40,
                40
            ],
            "rangeH": 40,
            "rangeL": 40,
            "resultId": "764VCnwWLKmpPsBj",
            "text": "Roll Back",
            "type": 2,
            "weight": 1
        },
        {
            "_id": "QKK1IWgrAoKLV55g",
            "collection": "pf2e.hero-point-deck",
            "drawn": false,
            "flags": {},
            "img": "icons/svg/d20-black.svg",
            "range": [
                41,
                41
            ],
            "rangeH": 41,
            "rangeL": 41,
            "resultId": "mRJIxYZNnhNShgfj",
            "text": "Run and Shoot",
            "type": 2,
            "weight": 1
        },
        {
            "_id": "3bAQ724QozGf0ika",
            "collection": "pf2e.hero-point-deck",
            "drawn": false,
            "flags": {},
            "img": "icons/svg/d20-black.svg",
            "range": [
                42,
                42
            ],
            "rangeH": 42,
            "rangeL": 42,
            "resultId": "SS70TEfozroKA9G1",
            "text": "Shake it Off",
            "type": 2,
            "weight": 1
        },
        {
            "_id": "NDuiHre3Gd6qtNgL",
            "collection": "pf2e.hero-point-deck",
            "drawn": false,
            "flags": {},
            "img": "icons/svg/d20-black.svg",
            "range": [
                43,
                43
            ],
            "rangeH": 43,
            "rangeL": 43,
            "resultId": "6JieVtNOk4ZVclcP",
            "text": "Shoot Through",
            "type": 2,
            "weight": 1
        },
        {
            "_id": "Lv6VK4ge9W9KE0Ky",
            "collection": "pf2e.hero-point-deck",
            "drawn": false,
            "flags": {},
            "img": "icons/svg/d20-black.svg",
            "range": [
                44,
                44
            ],
            "rangeH": 44,
            "rangeL": 44,
            "resultId": "HfHDVaEEtG2wUmOZ",
            "text": "Spark of Courage",
            "type": 2,
            "weight": 1
        },
        {
            "_id": "PGcqqy7DCmbMWmZm",
            "collection": "pf2e.hero-point-deck",
            "drawn": false,
            "flags": {},
            "img": "icons/svg/d20-black.svg",
            "range": [
                45,
                45
            ],
            "rangeH": 45,
            "rangeL": 45,
            "resultId": "R5MsKeC8KHGBHawz",
            "text": "Stay in the Fight",
            "type": 2,
            "weight": 1
        },
        {
            "_id": "LMhejNF5SoQu8x2E",
            "collection": "pf2e.hero-point-deck",
            "drawn": false,
            "flags": {},
            "img": "icons/svg/d20-black.svg",
            "range": [
                46,
                46
            ],
            "rangeH": 46,
            "rangeL": 46,
            "resultId": "hjD9eWrqowr7zxBU",
            "text": "Stoke the Magical Flame",
            "type": 2,
            "weight": 1
        },
        {
            "_id": "nxPDMfw7gkuY9wFD",
            "collection": "pf2e.hero-point-deck",
            "drawn": false,
            "flags": {},
            "img": "icons/svg/d20-black.svg",
            "range": [
                47,
                47
            ],
            "rangeH": 47,
            "rangeL": 47,
            "resultId": "RLrz4nP5DqwZye4g",
            "text": "Strike True",
            "type": 2,
            "weight": 1
        },
        {
            "_id": "n2x2t7ieZc5GwVnj",
            "collection": "pf2e.hero-point-deck",
            "drawn": false,
            "flags": {},
            "img": "icons/svg/d20-black.svg",
            "range": [
                48,
                48
            ],
            "rangeH": 48,
            "rangeL": 48,
            "resultId": "yUi0ENJP5sgnyPyp",
            "text": "Surge of Magic",
            "type": 2,
            "weight": 1
        },
        {
            "_id": "71OweMUW2zOX1zG7",
            "collection": "pf2e.hero-point-deck",
            "drawn": false,
            "flags": {},
            "img": "icons/svg/d20-black.svg",
            "range": [
                49,
                49
            ],
            "rangeH": 49,
            "rangeL": 49,
            "resultId": "kuIJqFgeJyQcCfqc",
            "text": "Surge of Speed",
            "type": 2,
            "weight": 1
        },
        {
            "_id": "yxkalVQ4WMkENEdz",
            "collection": "pf2e.hero-point-deck",
            "drawn": false,
            "flags": {},
            "img": "icons/svg/d20-black.svg",
            "range": [
                50,
                50
            ],
            "rangeH": 50,
            "rangeL": 50,
            "resultId": "xVyXTjsG8iIe6wLj",
            "text": "Tuck and Roll",
            "type": 2,
            "weight": 1
        },
        {
            "_id": "7tFyP69YlTKYwUka",
            "collection": "pf2e.hero-point-deck",
            "drawn": false,
            "flags": {},
            "img": "icons/svg/d20-black.svg",
            "range": [
                51,
                51
            ],
            "rangeH": 51,
            "rangeL": 51,
            "resultId": "FaCIC09UZubaw2LO",
            "text": "Tumble Through",
            "type": 2,
            "weight": 1
        },
        {
            "_id": "PedfTyVSxIqECU3h",
            "collection": "pf2e.hero-point-deck",
            "drawn": false,
            "flags": {},
            "img": "icons/svg/d20-black.svg",
            "range": [
                52,
                52
            ],
            "rangeH": 52,
            "rangeL": 52,
            "resultId": "7Nk3WehdHLrgwnBZ",
            "text": "Warding Sign",
            "type": 2,
            "weight": 1
        }
    ]
}
