{
    "_id": "Wn47ZhXINo7jz8JZ",
    "content": "<table class=\"pf2-table\">\n<thead>\n<tr>\n<th>\n<h3><strong>Name</strong></h3>\n</th>\n<th>\n<h3><strong>Crit Effect</strong></h3>\n</th>\n<th>\n<h3><strong>Type</strong></h3>\n</th>\n</tr>\n</thead>\n<tbody>\n<tr>\n<td>Wrong End</td>\n<td>If you are using a slashing weapon, you take 1d6 slashing damage and 1 persistent bleed damage.</td>\n<td>\n<h3>Melee</h3>\n</td>\n</tr>\n<tr>\n<td>Phantom Wind</td>\n<td>You take a -2 circumstance penalty to ranged attacks until the end of your next turn.</td>\n<td>\n<h3>Ranged</h3>\n</td>\n</tr>\n<tr>\n<td>Overthink It</td>\n<td>Your target gains a +2 circumstance bonus to AC against attacks you make against it until the end of your next turn.</td>\n<td>\n<h3>Unarmed</h3>\n</td>\n</tr>\n<tr>\n<td>Power Down</td>\n<td>Until healed, you are stupefied 2.</td>\n<td>\n<h3>Spell</h3>\n</td>\n</tr>\n</tbody>\n</table>\n<h3 style=\"text-align: left;\"> </h3>",
    "flags": {},
    "name": "Critical Fumble Deck #2",
    "permission": {
        "default": 0
    }
}
