{
    "_id": "e9imRGVLbIWYVUXf",
    "content": "<table class=\"pf2-table\">\n<thead>\n<tr>\n<th>\n<h3><strong>Name</strong></h3>\n</th>\n<th>\n<h3><strong>Crit Effect</strong></h3>\n</th>\n<th>\n<h3><strong>Type</strong></h3>\n</th>\n</tr>\n</thead>\n<tbody>\n<tr>\n<td>\n<h3>Crunch</h3>\n</td>\n<td>\n<h3>The target is sickened 3.</h3>\n</td>\n<td>\n<h3>Bludgeoning</h3>\n</td>\n</tr>\n<tr>\n<td>\n<h3>Forearm Piercing</h3>\n</td>\n<td>\n<h3>The target drops one weapon it's holding (chosen randomly by the GM).</h3>\n</td>\n<td>\n<h3>Piercing</h3>\n</td>\n</tr>\n<tr>\n<td>\n<h3>Surprise Opening</h3>\n</td>\n<td>\n<h3>You gain 1 action that you can use before the end of your turn to use an attack action against the target.</h3>\n</td>\n<td>\n<h3>Slashing</h3>\n</td>\n</tr>\n<tr>\n<td>\n<h3>Allergic reaction</h3>\n</td>\n<td>\n<h3>The target takes 1d8 poison damage.</h3>\n</td>\n<td>\n<h3>Bomb or Spell</h3>\n</td>\n</tr>\n</tbody>\n</table>\n<h3 style=\"text-align: left;\"> </h3>",
    "flags": {},
    "name": "Critical Hit Deck #1",
    "permission": {
        "default": 0
    }
}
