{
    "_id": "3cuTA58ObXhuFX2r",
    "data": {
        "actionCategory": {
            "value": "interaction"
        },
        "actionType": {
            "value": "free"
        },
        "actions": {
            "value": null
        },
        "description": {
            "value": "<p><strong>Frequency</strong> once per day;</p>\n<p><strong>Trigger</strong> Your turn begins;</p>\n<p><strong>Effect</strong> You are @Compendium[pf2e.conditionitems.Quickened]{Quickened} this turn. You can use your extra action to Stride.</p>"
        },
        "requirements": {
            "value": ""
        },
        "rules": [],
        "source": {
            "value": ""
        },
        "traits": {
            "custom": "",
            "rarity": {
                "value": "common"
            },
            "value": [
                "occult",
                "transmutation"
            ]
        },
        "trigger": {
            "value": ""
        },
        "weapon": {
            "value": ""
        }
    },
    "effects": [],
    "flags": {},
    "img": "systems/pf2e/icons/actions/FreeAction.webp",
    "name": "Bend Time",
    "type": "action"
}
