{
    "_id": "vZPyQAt5T2L0Dfmq",
    "data": {
        "description": {
            "value": "<p>In this state, a creature that attempts a check to Squeeze uses the outcome one degree of success better than it rolls and can move its full Speed while Squeezing</p>"
        },
        "duration": {
            "expiry": "turn-start",
            "sustained": false,
            "unit": "minutes",
            "value": 1
        },
        "level": {
            "value": 7
        },
        "rules": [
            {
                "adjustment": {
                    "criticalFailure": "one-degree-better",
                    "failure": "one-degree-better",
                    "success": "one-degree-better"
                },
                "key": "AdjustDegreeOfSuccess",
                "predicate": {
                    "all": [
                        "action:squeeze"
                    ]
                },
                "selector": "acrobatics",
                "type": "save"
            }
        ],
        "source": {
            "value": ""
        },
        "start": {
            "initiative": null,
            "value": 0
        },
        "target": null,
        "tokenIcon": {
            "show": true
        },
        "traits": {
            "custom": "",
            "rarity": {
                "value": "common"
            },
            "value": []
        }
    },
    "effects": [],
    "flags": {},
    "img": "systems/pf2e/icons/default-icons/effect.svg",
    "name": "Equipment Effect: Topology Protoplasm",
    "type": "effect"
}
