{
    "_id": "j9zVZwRBVAcnpEkE",
    "data": {
        "description": {
            "value": "<p>Granted by @Compendium[pf2e.equipment-srd.Cheetah's Elixir (Moderate)]{Cheetah's Elixir (Moderate)}</p>\n<p>Automatically applied effects:</p>\n<ul>\n<li>+10 foot status bonus to Speed</li>\n</ul>"
        },
        "duration": {
            "expiry": "turn-start",
            "sustained": false,
            "unit": "minutes",
            "value": 10
        },
        "level": {
            "value": 5
        },
        "rules": [
            {
                "key": "FlatModifier",
                "selector": "speed",
                "type": "status",
                "value": 10
            }
        ],
        "source": {
            "value": ""
        },
        "start": {
            "initiative": null,
            "value": 0
        },
        "target": null,
        "tokenIcon": {
            "show": true
        },
        "traits": {
            "custom": "",
            "rarity": {
                "value": "common"
            },
            "value": []
        }
    },
    "effects": [],
    "flags": {},
    "img": "systems/pf2e/icons/equipment/alchemical-items/alchemical-elixirs/cheetahs-elixir.webp",
    "name": "Effect: Cheetah's Elixir (Moderate)",
    "type": "effect"
}
