{
    "_id": "TW7Q6O928YWNME9r",
    "content": "<h1>Kitumu (Mother of Fireflies) [CE]</h1>\n<p>If any fervent devotees of the monstrous firefly goddess exist, they don't venture into civilization. The closest Kitumu has to servants or worshipers are those willing to placate the goddess in order to satisfy her demands and hungers.</p>\n<p><strong>Edicts</strong> offer sacrifices to Kitumu, feed the hungers of nature with humanoid creatures</p>\n<p><strong>Anathema</strong> step on a firefly, kill those marked by Kitumu</p>\n<p><strong>Follower Alignments</strong> NE, CE</p>\n<h2>Devotee Benefits</h2>\n<div><strong>Divine Font</strong> harm</div>\n<div><strong>Divine Ability</strong> Dexterity or Charisma</div>\n<div><strong>Divine Skill</strong> Nature</div>\n<div><strong>Favored Weapon</strong> @Compendium[pf2e.equipment-srd.Greatclub]{Greatclub}</div>\n<div><strong>Domains</strong> destruction, indulgence, nightmare, swarm</div>\n<div><strong>Cleric Spells</strong> 1st: <em>@Compendium[pf2e.spells-srd.Sleep]{Sleep}</em>, 2nd:<em>@Compendium[pf2e.spells-srd.Vomit Swarm]{Vomit Swarm}</em>, 3rd: <em>@Compendium[pf2e.spells-srd.Insect Form]{Insect Form}</em></div>",
    "flags": {},
    "name": "Kitumu",
    "permission": {
        "default": 0
    }
}
