{
    "_id": "nuvfUC4TcOvFbKxx",
    "content": "<h1>Osiris (Lord of the Living) [LG]</h1><p><strong>Edicts</strong> Ensure the health of crops and vegetation, protect the bodies and souls of the worthy dead, avenge the wrongly murdered</p><p><strong>Anathema</strong> Dismember a creature, desecrate a corpse, show ingratitude for a sincere gift</p><p><strong>Follower Alignments</strong> LG, NG</span></p><p></span></p><h2>Devotee Benefits</h2><div><div><strong>Divine Ability</strong> Constitution or Wisdom</div><div><strong>Divine Font</strong> heal</div><div><strong>Divine Skill</strong> Nature</div><div><strong>Favored Weapon</strong> flail</div><div><strong>Domains</strong> change, healing, nature, soul</div><div><strong>Cleric Spells</strong> 1st: soothe, 2nd: false life, 6th: tangling creepers</div></div>",
    "flags": {},
    "name": "Osiris",
    "permission": {
        "default": 0
    }
}
