{
    "_id": "lZ74P8kUA1ti808w",
    "content": "<h1>Prophecies of Kalistrade</span></h1><p>The secular prophecies of Kalistrade are famously centered on a single principle: amassing personal wealth both in search of and as evidence of personal enlightenment. The prophets of Kalistrade, often referred to as Kalistocrats, believe that achieving purity of body, mind, and spirit will lead to financial success, and thus they avoid certain foods and eschew contact with most persons and objects as impure. To avoid contamination and contact with nonbelievers they wear long, white gloves, and they wear distinctive, all-white clothing to represent their purity-often incorporating their symbol, a circle inside a triangle that is itself inscribed in a larger circle.</p><p><strong>Edicts</strong> accumulate personal wealth, foster and aid mercantile pursuits, welcome newcomers regardless of gender or ancestry</p><p><strong>Anathema</strong> spend money frivolously; offer money to those who don't deserve wealth; overindulge in physical pleasures, food, or drink</p><p><strong>Areas of Concern</strong> trade, wealth, self-denial, stability</p><p><strong>Follower Alignments</strong> LG, LN, LE</span></p><p></span></p>",
    "flags": {},
    "name": "Prophecies of Kalistrade",
    "permission": {
        "default": 0
    }
}
