{
    "_id": "97Qe42wJN5EVUS14",
    "content": "<h1>Sturovenen (The Dragoneagle) [LG]</h1><p><strong>Edicts</strong> Act with conviction and confidence, be a passionate and responsible leader to your people or companions</p><p><strong>Anathema</strong> Command a subordinate to perform a task you're not willing to perform yourself</p><p><strong>Follower Alignments</strong> LG, NG, LN</span></p><p></span></p><h2>Devotee Benefits</h2><div><div><strong>Divine Ability</strong> Dexterity or Charisma</div><div><strong>Divine Font</strong> heal</div><div><strong>Divine Skill</strong> Diplomacy</div><div><strong>Favored Weapon</strong> main-gauche</div><div><strong>Domains</strong> air, confidence, passion, sun</div><div><strong>Cleric Spells</strong> 1st: charm, 5th: cloak of colors, 6th: dragon form</div></div>",
    "flags": {},
    "name": "Sturovenen",
    "permission": {
        "default": 0
    }
}
