{
    "_id": "6fojN9yBJByTZ1Q9",
    "data": {
        "actionCategory": {
            "value": ""
        },
        "actionType": {
            "value": "passive"
        },
        "actions": {
            "value": null
        },
        "description": {
            "value": "<p>When you find a glaring weakness, you can set your allies up to annihilate your foe.</p>\n<p>When you use @Compendium[pf2e.feats-srd.Shared Stratagem]{Shared Stratagem}, you can designate up to 10 allies instead of just one. The foe is @Compendium[pf2e.conditionitems.Flat-Footed]{Flat-Footed} against the first attack from each designated ally before your next turn, and each ally's first attack deals an extra 2d6 precision damage to the target if it hits.</p>\n<p>@Compendium[pf2e.feat-effects.Effect: Didactic Strike]{Effect: Didactic Strike}</p>"
        },
        "featType": {
            "value": "class"
        },
        "level": {
            "value": 16
        },
        "location": "",
        "prerequisites": {
            "value": [
                {
                    "value": "Shared Stratagem"
                }
            ]
        },
        "rules": [],
        "source": {
            "value": "Pathfinder Advanced Player's Guide"
        },
        "traits": {
            "custom": "",
            "rarity": {
                "value": "common"
            },
            "value": [
                "investigator"
            ]
        }
    },
    "effects": [],
    "flags": {},
    "img": "systems/pf2e/icons/features/feats/feats.webp",
    "name": "Didactic Strike",
    "type": "feat"
}
