{
    "_id": "JoeepCWheQChcQ9s",
    "data": {
        "actionCategory": {
            "value": ""
        },
        "actionType": {
            "value": "passive"
        },
        "actions": {
            "value": null
        },
        "description": {
            "value": "<p>Your elemental lineage manifests as magma and molten rock, and you can focus the magma into your hand to attack your foes. You gain a magma spike unarmed attack, which requires a free hand to use. This is an agile, finesse, unarmed attack in the brawling weapon group that deals [[/r {1d4}[piercing]]]{1d4 piercing damage}, as well as [[/r {1}[fire]]]{1 additional fire damage}. Instead of the normal critical specialization effect, the target takes [[/r {1d6}[persistent,fire]]] @Compendium[pf2e.conditionitems.Persistent Damage]{Persistent Fire Damage}; you gain a bonus on this persistent damage equal to your item bonus to attack rolls on unarmed attacks.</p>"
        },
        "featType": {
            "value": "ancestry"
        },
        "level": {
            "value": 1
        },
        "location": "",
        "prerequisites": {
            "value": []
        },
        "rules": [
            {
                "category": "unarmed",
                "damage": {
                    "base": {
                        "damageType": "piercing ",
                        "dice": 1,
                        "die": "d4"
                    }
                },
                "key": "Strike",
                "label": "Magma spike",
                "range": null,
                "traits": [
                    "finesse",
                    "agile",
                    "unarmed"
                ]
            },
            {
                "damageType": "fire",
                "key": "FlatModifier",
                "label": "Magma spike",
                "selector": "{item|_id}-damage",
                "value": 1
            },
            {
                "key": "Note",
                "outcome": [
                    "criticalSuccess"
                ],
                "selector": "{item|_id}-damage",
                "text": "<p class='compact-text'>Instead of the normal critical specialization effect, the target takes [[/r {1d6}[persistent,fire]]] @Compendium[pf2e.conditionitems.Persistent Damage]{Persistent Fire Damage} fire damage; you gain a bonus on this persistent damage equal to your item bonus to attack rolls on unarmed attacks.</p>"
            }
        ],
        "source": {
            "value": "Pathfinder Lost Omens: Ancestry Guide"
        },
        "traits": {
            "custom": "",
            "rarity": {
                "value": "common"
            },
            "value": [
                "ifrit",
                "lineage"
            ]
        }
    },
    "effects": [],
    "flags": {},
    "img": "systems/pf2e/icons/features/feats/feats.webp",
    "name": "Lavasoul",
    "type": "feat"
}
