{
    "_id": "467qQoiy6bjWU1G8",
    "data": {
        "actionCategory": {
            "value": ""
        },
        "actionType": {
            "value": "passive"
        },
        "actions": {
            "value": null
        },
        "description": {
            "value": "<p>Your fame has spread throughout the lands. NPCs who succeed at a DC 10 Society check to Recall Knowledge have heard of you and usually have an attitude toward you one step better than normal, depending on your reputation and the NPC's disposition. For instance, if you're well-known for cruel and demanding behavior, creatures might be intimidated by you, rather than be friendly toward you. When you Earn Income with Performance, you attract higher-level audiences than your location would allow, as audiences flock to see you. For instance, rulers and angels might travel to your small tower in the woods to hear you perform. Typically, this increases the audiences available by 2 levels or more, determined by the GM.</p>"
        },
        "featType": {
            "value": "skill"
        },
        "level": {
            "value": 15
        },
        "prerequisites": {
            "value": [
                {
                    "value": "legendary in Performance"
                },
                {
                    "value": "Virtuosic Performer"
                }
            ]
        },
        "rules": [],
        "source": {
            "value": "Pathfinder Core Rulebook"
        },
        "traits": {
            "custom": "",
            "rarity": {
                "value": "common"
            },
            "value": [
                "general",
                "skill"
            ]
        }
    },
    "effects": [],
    "flags": {},
    "img": "systems/pf2e/icons/features/feats/feats.webp",
    "name": "Legendary Performer",
    "type": "feat"
}
