{
    "_id": "lEgYzFHransLkSvI",
    "data": {
        "actionCategory": {
            "value": ""
        },
        "actionType": {
            "value": "passive"
        },
        "actions": {
            "value": null
        },
        "description": {
            "value": "<p>You notice the signs and symbols that members of mystery cults and other secret societies use to declare their affiliation to fellow members.</p>\n<p>You can use Occultism in place of Diplomacy to @Compendium[pf2e.actionspf2e.Gather Information]{Gather Information} about such groups. If you belong to a secret cult, lodge, sect, or similar organization, you automatically recognize members of your group unless they are specifically attempting to conceal their presence from you.</p>"
        },
        "featType": {
            "value": "skill"
        },
        "level": {
            "value": 1
        },
        "prerequisites": {
            "value": [
                {
                    "value": "trained in Occultism"
                }
            ]
        },
        "rules": [],
        "source": {
            "value": "Pathfinder Advanced Player's Guide"
        },
        "traits": {
            "custom": "",
            "rarity": {
                "value": "common"
            },
            "value": [
                "general",
                "skill"
            ]
        }
    },
    "effects": [],
    "flags": {},
    "img": "systems/pf2e/icons/features/feats/feats.webp",
    "name": "Schooled In Secrets",
    "type": "feat"
}
