{
    "_id": "CAfrSLaDM0OBaNtp",
    "data": {
        "actionCategory": {
            "value": "offensive"
        },
        "actionType": {
            "value": "passive"
        },
        "actions": {
            "value": null
        },
        "description": {
            "value": "<p>You notice things that others can't see at all. While you're adjacent to an undetected creature of your level or lower, it is instead only hidden from you. You only need a successful DC 5 flat check to target a @Compendium[pf2e.conditionitems.Hidden]{Hidden} creature.</p>"
        },
        "featType": {
            "value": "ancestry"
        },
        "level": {
            "value": 13
        },
        "location": "",
        "prerequisites": {
            "value": []
        },
        "rules": [],
        "source": {
            "value": "Pathfinder Lost Omens: The Mwangi Expanse"
        },
        "traits": {
            "custom": "",
            "rarity": {
                "value": "common"
            },
            "value": [
                "goloma"
            ]
        }
    },
    "effects": [],
    "flags": {},
    "img": "systems/pf2e/icons/default-icons/feats.webp",
    "name": "See the Unseen",
    "type": "feat"
}
