{
    "_id": "hT0pVPqFuiEsmRb8",
    "data": {
        "actionCategory": {
            "value": "interaction"
        },
        "actionType": {
            "value": "action"
        },
        "actions": {
            "value": 1
        },
        "description": {
            "value": "<p><strong>Requirements</strong> You are unarmored.</p>\n<p>You stand firm, steeling your mind and body, allowing you to use your magic unperturbed. While in this stance, you gain a +4 circumstance bonus to AC against reactions triggered by using actions with the concentrate or manipulate traits. In addition, when you cast a spell that requires one or more actions while in this stance, your unarmed Strikes gain a +1 circumstance bonus to damage.</p>\n<p>@Compendium[pf2e.feat-effects.Stance: Six Pillars Stance]{Stance: Six Pillars Stance}</p>"
        },
        "featType": {
            "value": "archetype"
        },
        "level": {
            "value": 10
        },
        "location": "",
        "prerequisites": {
            "value": [
                {
                    "value": "Sixth Pillar Dedication"
                }
            ]
        },
        "rules": [],
        "source": {
            "value": "Pathfinder #167: Ready? Fight!"
        },
        "traits": {
            "custom": "",
            "rarity": {
                "value": "common"
            },
            "value": [
                "archetype",
                "stance"
            ]
        }
    },
    "effects": [],
    "flags": {},
    "img": "systems/pf2e/icons/default-icons/feats.webp",
    "name": "Six Pillars Stance",
    "type": "feat"
}
