{
    "_id": "KOf6kmwAZaUJSDW9",
    "data": {
        "actionCategory": {
            "value": ""
        },
        "actionType": {
            "value": "passive"
        },
        "actions": {
            "value": null
        },
        "description": {
            "value": "<p>You gain the @Compendium[pf2e.feats-srd.Terrain Stalker]{Terrain Stalker} skill feat twice, choosing a different terrain each time.</p>\n<p>If you @Compendium[pf2e.actionspf2e.Avoid Notice]{Avoid Notice} while exploring and any allies use @Compendium[pf2e.actionspf2e.Follow the Expert]{Follow the Expert} to follow you as you do so, you can choose one of those allies to gain the benefit of any one Terrain Stalker feat you have.</p>"
        },
        "featType": {
            "value": "archetype"
        },
        "level": {
            "value": 4
        },
        "prerequisites": {
            "value": [
                {
                    "value": "Scout Dedication"
                }
            ]
        },
        "rules": [],
        "source": {
            "value": "Pathfinder Advanced Player's Guide"
        },
        "traits": {
            "custom": "",
            "rarity": {
                "value": "common"
            },
            "value": [
                "archetype"
            ]
        }
    },
    "effects": [],
    "flags": {},
    "img": "systems/pf2e/icons/features/feats/feats.webp",
    "name": "Terrain Scout",
    "type": "feat"
}
