{
    "_id": "YCqHaqn0TxdiGxiW",
    "data": {
        "actionCategory": {
            "value": ""
        },
        "actionType": {
            "value": "passive"
        },
        "actions": {
            "value": null
        },
        "description": {
            "value": "<p>You have become a brutal, unstoppable force of nature, able to shrug off mortal wounds with ease. You gain resistance equal to 3 + your Constitution modifier to all damage, and your resistance from @Compendium[pf2e.actionspf2e.Rage]{Raging} increases to 8 + your Constitution modifier.</p>\n<p>In addition, if you are reduced to 0 Hit Points while raging, you can end your @Compendium[pf2e.actionspf2e.Rage]{Rage} as a reaction to stay at 1 Hit Point. If you do, you become @Compendium[pf2e.conditionitems.Wounded]{Wounded 2} (or increase your wounded condition by 2 if you are already wounded).</p>"
        },
        "featType": {
            "value": "class"
        },
        "level": {
            "value": 20
        },
        "prerequisites": {
            "value": []
        },
        "rules": [],
        "source": {
            "value": "Pathfinder #150: Broken Promises"
        },
        "traits": {
            "custom": "",
            "rarity": {
                "value": "common"
            },
            "value": [
                "barbarian"
            ]
        }
    },
    "effects": [],
    "flags": {},
    "img": "systems/pf2e/icons/features/feats/feats.webp",
    "name": "Unstoppable Juggernaut",
    "type": "feat"
}
