{
    "_id": "Ezk3OgfPaRlEEyAD",
    "data": {
        "actionCategory": {
            "value": ""
        },
        "actionType": {
            "value": "passive"
        },
        "actions": {
            "value": null
        },
        "description": {
            "value": "<p>Your tattoos are a work of eldritch genius, a masterpiece of art, magic, and skin. Choose a 3rd-level arcane spell from the same school as your Arcane Tattoos, either a common spell or another to which you have access, including a lower-level spell heightened to 3rd level if you wish. You can cast that spell once per day as an innate arcane spell.</p>"
        },
        "featType": {
            "value": "ancestry"
        },
        "level": {
            "value": 9
        },
        "prerequisites": {
            "value": [
                {
                    "value": "Ornate Tattoo"
                }
            ]
        },
        "rules": [],
        "source": {
            "value": "Pathfinder Lost Omens: Character Guide"
        },
        "traits": {
            "custom": "",
            "rarity": {
                "value": "common"
            },
            "value": [
                "human"
            ]
        }
    },
    "effects": [],
    "flags": {},
    "img": "systems/pf2e/icons/features/feats/feats.webp",
    "name": "Virtue-Forged Tattoos",
    "type": "feat"
}
