{
    "_id": "TdA3oVj79KxOm2Kd",
    "data": {
        "actionCategory": {
            "value": "offensive"
        },
        "actionType": {
            "value": "action"
        },
        "actions": {
            "value": 1
        },
        "description": {
            "value": "<p>You enhance your spell with elemental air, using the wind to find your target and carry your magic around cover.</p>\n<p>If the next action you use is to Cast a Spell that requires a spell attack roll, you ignore the target's @Compendium[pf2e.conditionitems.Concealed]{Concealed} condition and any cover they have from you.</p>\n<p>The spell gains the air trait.</p>"
        },
        "featType": {
            "value": "archetype"
        },
        "level": {
            "value": 14
        },
        "location": "",
        "prerequisites": {
            "value": [
                {
                    "value": "Elementalist Dedication"
                }
            ]
        },
        "rules": [],
        "source": {
            "value": ""
        },
        "traits": {
            "custom": "",
            "rarity": {
                "value": "common"
            },
            "value": [
                "air",
                "archetype",
                "concentrate",
                "metamagic"
            ]
        }
    },
    "effects": [],
    "flags": {},
    "img": "systems/pf2e/icons/default-icons/feat.svg",
    "name": "Wind-Tossed Spell",
    "type": "feat"
}
