{
    "_id": "a1OZtMQSzjYOm0P3",
    "data": {
        "actionCategory": {
            "value": ""
        },
        "actionType": {
            "value": "passive"
        },
        "actions": {
            "value": null
        },
        "description": {
            "value": "<p><strong>Moderate Boon</strong>: You can devour all. You mouth grows into a horrible circular, insectile maw of needle-like teeth.</p>\n<p>You gain a bite unarmed attack that deals 1d8 piercing damage.</p>\n<p>Additionally, you can stomach eating anything you can fit down your throat-even rocks or small objects.</p>\n<p>You gain a +4 status bonus to saves resulting from eating something, such as diseases, poisons, or other effects of the ingested object. This doesn't allow you to digest magic items that would otherwise be difficult or impossible to destroy, such as cursed items or artifacts.</p>"
        },
        "featType": {
            "value": "deityboon"
        },
        "level": {
            "value": 0
        },
        "prerequisites": {
            "value": []
        },
        "rules": [],
        "source": {
            "value": ""
        },
        "traits": {
            "custom": "",
            "rarity": {
                "value": "common"
            },
            "value": []
        }
    },
    "effects": [],
    "flags": {},
    "img": "systems/pf2e/icons/deity/Rovagug.webp",
    "name": "Rovagug - Moderate Boon",
    "type": "feat"
}
