{
    "_id": "wqh8D9kHGItZBvtQ",
    "data": {
        "description": {
            "value": "<p>You surround yourself in a mantle of frigid ice magic, and your skin and armor morph into cold blue ice. Freezing air emanates from your body, sending a chill down anyone's spine who draws too close and leaving a fine dusting of frost in your wake. As a single action, which has the concentrate trait, you can change one of your chosen abilities to a different option from the list.</p>\n<ul>\n<li><strong>Icy Claws</strong> Your hands morph into vicious, piercing claws of ice useful for attacking or climbing. As long as you have both hands free, you gain a climb Speed equal to your land Speed. You gain a claw unarmed attack with the agile and finesse traits, in the brawling weapon group. Your claw attack deals 1d6 piercing damage as its base damage, plus an additional 2d6 cold damage.</li>\n</ul>"
        },
        "duration": {
            "expiry": "turn-start",
            "sustained": false,
            "unit": "minutes",
            "value": 1
        },
        "level": {
            "value": 5
        },
        "rules": [
            {
                "category": "unarmed",
                "damage": {
                    "base": {
                        "damageType": "piercing",
                        "dice": 1,
                        "die": "d6"
                    }
                },
                "group": "brawling",
                "key": "Strike",
                "label": "Claw",
                "range": null,
                "traits": [
                    "melee",
                    "unarmed",
                    "agile",
                    "finesse"
                ]
            },
            {
                "damageType": "cold",
                "diceNumber": 2,
                "dieSize": "d6",
                "key": "DamageDice",
                "label": "Mantle of the Icy Heart (Icy Claws)",
                "selector": "{item|_id}-damage"
            },
            {
                "key": "BaseSpeed",
                "selector": "climb-speed",
                "value": "@attributes.speed.value"
            }
        ],
        "source": {
            "value": ""
        },
        "start": {
            "initiative": null,
            "value": 0
        },
        "target": null,
        "tokenIcon": {
            "show": true
        },
        "traits": {
            "custom": "",
            "rarity": {
                "value": "common"
            },
            "value": []
        }
    },
    "effects": [],
    "flags": {},
    "img": "systems/pf2e/icons/spells/mantle-of-the-frozen-heart.webp",
    "name": "Spell Effect: Mantle of the Frozen Heart (Icy Claws)",
    "type": "effect"
}
