{
    "_id": "p10GOTCXqeJp4wzg",
    "data": {
        "description": {
            "value": "<p>With enchanted gusto, you encourage yourself to get things done and share your motivation with your allies. You gain a +1 status bonus to Charisma-based skill checks. During the spell's duration, an ally who observed you Casting this Spell and was within 30 feet when you did so can take a single action, which has the concentrate trait, to gain the same bonus you chose until the start of its next turn.</p>\n<p>Using this spell to influence someone in a social situation is typically considered a faux pas, negating the benefit on Charisma-based skills if the subject of the check observed you casting the spell.</p>"
        },
        "duration": {
            "expiry": "turn-start",
            "sustained": false,
            "unit": "rounds",
            "value": 1
        },
        "level": {
            "value": 1
        },
        "rules": [
            {
                "key": "FlatModifier",
                "label": "Infectious Enthusiasm",
                "selector": "cha-based",
                "type": "status",
                "value": 1
            }
        ],
        "source": {
            "value": ""
        },
        "start": {
            "initiative": null,
            "value": 0
        },
        "target": null,
        "tokenIcon": {
            "show": true
        },
        "traits": {
            "custom": "",
            "rarity": {
                "value": "common"
            },
            "value": []
        }
    },
    "effects": [],
    "flags": {},
    "img": "systems/pf2e/icons/spells/infectious-enthusiasm.webp",
    "name": "Spell Effect: Infectious Enthusiasm (Charisma Based)",
    "type": "effect"
}
