{
    "_id": "RGs4uR3CAvgbtBAA",
    "data": {
        "actionCategory": {
            "value": ""
        },
        "actionType": {
            "value": "passive"
        },
        "actions": {
            "value": null
        },
        "description": {
            "value": "<p>You can increase the splash on your bombs to damage creatures within 10 feet, or 15 feet if you have @Compendium[pf2e.feats-srd.Expanded Splash]{Expanded Splash}.</p>"
        },
        "featType": {
            "value": "classfeature"
        },
        "level": {
            "value": 13
        },
        "location": "",
        "prerequisites": {
            "value": []
        },
        "rules": [
            {
                "key": "Note",
                "predicate": {
                    "all": [
                        "alchemical",
                        "bomb",
                        "splash"
                    ]
                },
                "selector": "damage",
                "text": "<p class='compact-text'><strong> Bomber (Greater Field Discovery)</strong> The bomb deals splash damage to every creature within 10 feet of the target, or 15 feet if you have Expanded Splash.</p>"
            }
        ],
        "source": {
            "value": ""
        },
        "traits": {
            "custom": "",
            "rarity": {
                "value": "common"
            },
            "value": [
                "alchemist"
            ]
        }
    },
    "effects": [],
    "flags": {},
    "img": "systems/pf2e/icons/features/classes/greater-field-discovery-bomber.webp",
    "name": "Greater Field Discovery (Bomber)",
    "type": "feat"
}
