{
    "_id": "NTp146fjLreL5zsj",
    "data": {
        "actionCategory": {
            "value": ""
        },
        "actionType": {
            "value": "passive"
        },
        "actions": {
            "value": null
        },
        "description": {
            "value": "<p>Through your adventures, you've developed keen awareness and attention to detail. Your proficiency rank for Perception increases to master.</p>"
        },
        "featType": {
            "value": "classfeature"
        },
        "level": {
            "value": 11
        },
        "location": "",
        "prerequisites": {
            "value": []
        },
        "rules": [
            {
                "key": "ActiveEffectLike",
                "mode": "upgrade",
                "path": "data.attributes.perception.rank",
                "value": 3
            }
        ],
        "source": {
            "value": ""
        },
        "traits": {
            "custom": "",
            "rarity": {
                "value": "common"
            },
            "value": [
                "bard",
                "swashbuckler"
            ]
        }
    },
    "effects": [],
    "flags": {},
    "img": "systems/pf2e/icons/features/classes/vigilant-senses.webp",
    "name": "Vigilant Senses (Level 11)",
    "type": "feat"
}
