{
    "_id": "cCouACwRwxjEgy7u",
    "data": {
        "description": {
            "value": "<p>As your body rises, you float just above the ground beneath you.</p>\n<p>You become @Compendium[pf2e.conditionitems.Enfeebled]{Enfeebled 4}, and take a -4 penalty to saves and DCs against @Compendium[pf2e.actionspf2e.Grapple]{Grapple}, @Compendium[pf2e.actionspf2e.Shove]{Shove}, and other forms of forced movement.</p>\n<p>You are treated as one size smaller for wind effects. You gain a +2 status bonus against @Compendium[pf2e.actionspf2e.Trip]{Trip} attempts, you only take half as much damage from falls, and you gain the effects of the @Compendium[pf2e.feats-srd.Powerful Leap]{Powerful Leap} and @Compendium[pf2e.feats-srd.Quick Jump]{Quick Jump} skill feats. You weigh only half as much, and your Bulk, should someone need to carry you, is also half as much.</p>\n<p>You can walk on liquids as if they were solid; you gain the effects of the @Compendium[pf2e.feats-srd.Cloud Jump]{Cloud Jump} skill feat; and you don't leave tracks, trigger weight-sensitive pressure plates, or otherwise connect with the ground below you.</p>\n<hr />\n<p><em>Note: The bonus and penalties to saving throws are applied automatically. You need to apply the remaining effects manually.</em></p>"
        },
        "duration": {
            "expiry": "turn-start",
            "sustained": false,
            "unit": "unlimited",
            "value": -1
        },
        "level": {
            "value": 1
        },
        "rules": [
            {
                "key": "FlatModifier",
                "label": "Major Curse of Cosmos (vs. grapple, shove and forced movement)",
                "predicate": {
                    "any": [
                        "action:grapple",
                        "action:shove",
                        "forced-movement"
                    ]
                },
                "selector": "saving-throw",
                "value": -4
            },
            {
                "key": "FlatModifier",
                "label": "Major Curse of Cosmos (vs. trip)",
                "predicate": {
                    "all": [
                        "action:trip"
                    ]
                },
                "selector": "saving-throw",
                "value": 2
            }
        ],
        "source": {
            "value": ""
        },
        "start": {
            "initiative": null,
            "value": 0
        },
        "target": null,
        "tokenIcon": {
            "show": true
        },
        "traits": {
            "custom": "",
            "rarity": {
                "value": "common"
            },
            "value": []
        }
    },
    "effects": [],
    "flags": {},
    "img": "systems/pf2e/icons/features/classes/cosmos-mystery.webp",
    "name": "Effect: Major Cosmos Curse",
    "type": "effect"
}
