{
    "_id": "dqaCLzINHBiKjh4J",
    "data": {
        "ability": {
            "value": ""
        },
        "area": {
            "areaType": "emanation",
            "value": "20"
        },
        "areasize": {
            "value": "20-foot emanation"
        },
        "autoHeightenLevel": {
            "value": null
        },
        "category": {
            "value": "focus"
        },
        "components": {
            "focus": false,
            "material": false,
            "somatic": false,
            "verbal": true
        },
        "cost": {
            "value": ""
        },
        "damage": {
            "value": {}
        },
        "description": {
            "value": "<p><strong>Trigger</strong> You are about to roll for initiative.</p>\n<hr />\n<p>You cry out a call to arms, inspiring your allies to enter the fray. Each ally in the area gains a +2 status bonus to their initiative roll and gains temporary Hit Points equal to the spell's level; these temporary Hit Points last for the spell's duration.</p>\n<hr />\n<p><strong>Heightened (6th)</strong> The bonus increases to +3.</p>\n<p><strong>Heightened (9th)</strong> The bonus increases to +4.</p>\n<p>@Compendium[pf2e.spell-effects.Spell Effect: Call to Arms]{Spell Effect: Call to Arms}</p>"
        },
        "duration": {
            "value": "1 minute"
        },
        "hasCounteractCheck": {
            "value": false
        },
        "level": {
            "value": 1
        },
        "location": {
            "value": ""
        },
        "materials": {
            "value": ""
        },
        "prepared": {
            "value": ""
        },
        "primarycheck": {
            "value": ""
        },
        "range": {
            "value": ""
        },
        "rules": [],
        "save": {
            "basic": "",
            "value": ""
        },
        "school": {
            "value": "enchantment"
        },
        "secondarycasters": {
            "value": ""
        },
        "secondarycheck": {
            "value": ""
        },
        "source": {
            "value": "Pathfinder Advanced Player's Guide"
        },
        "spellType": {
            "value": "utility"
        },
        "sustained": {
            "value": false
        },
        "target": {
            "value": ""
        },
        "time": {
            "value": "reaction"
        },
        "traditions": {
            "custom": "",
            "value": []
        },
        "traits": {
            "custom": "",
            "rarity": {
                "value": "uncommon"
            },
            "value": [
                "auditory",
                "cursebound",
                "emotion",
                "mental",
                "oracle"
            ]
        }
    },
    "effects": [],
    "flags": {},
    "img": "systems/pf2e/icons/spells/call-to-arms.webp",
    "name": "Call to Arms",
    "type": "spell"
}
