{
    "_id": "HWJODX2zPg5cg34F",
    "data": {
        "ability": {
            "value": ""
        },
        "area": {
            "areaType": "",
            "value": ""
        },
        "areasize": {
            "value": ""
        },
        "category": {
            "value": "focus"
        },
        "components": {
            "material": false,
            "somatic": true,
            "verbal": true
        },
        "cost": {
            "value": ""
        },
        "damage": {
            "value": {}
        },
        "description": {
            "value": "<p>Leathery wings sprout from your back, giving you a fly Speed of 60 feet or your Speed, whichever is faster. When this spell's duration would end, if you're still flying, you float to the ground, as <em>@Compendium[pf2e.spells-srd.Feather Fall]{Feather Fall}</em>.</p>\n<p>You can increase the Focus Point cost by 1 to gain the effects of <em>@Compendium[pf2e.spells-srd.Dragon Claws]{Dragon Claws}</em> as long as the wings last.</p>\n<hr />\n<p><strong>Heightened (8th)</strong> The duration increases to 10 minutes.</p>\n<p>@Compendium[pf2e.spell-effects.Spell Effect: Dragon Wings (60 Feet)]{Spell Effect: Dragon Wings (60 Feet)}</p>\n<p>@Compendium[pf2e.spell-effects.Spell Effect: Dragon Wings (Own Speed)]{Spell Effect: Dragon Wings (Own Speed)}</p>"
        },
        "duration": {
            "value": "1 minute"
        },
        "hasCounteractCheck": {
            "value": false
        },
        "level": {
            "value": 5
        },
        "location": {
            "value": ""
        },
        "materials": {
            "value": ""
        },
        "prepared": {
            "value": ""
        },
        "primarycheck": {
            "value": ""
        },
        "range": {
            "value": ""
        },
        "rules": [],
        "save": {
            "basic": "",
            "value": ""
        },
        "school": {
            "value": "transmutation"
        },
        "secondarycasters": {
            "value": ""
        },
        "secondarycheck": {
            "value": ""
        },
        "source": {
            "value": "Pathfinder Core Rulebook"
        },
        "spellType": {
            "value": "utility"
        },
        "sustained": {
            "value": false
        },
        "target": {
            "value": ""
        },
        "time": {
            "value": "2"
        },
        "traditions": {
            "value": []
        },
        "traits": {
            "custom": "",
            "rarity": {
                "value": "uncommon"
            },
            "value": [
                "morph",
                "sorcerer"
            ]
        }
    },
    "effects": [],
    "flags": {},
    "img": "systems/pf2e/icons/spells/dragon-wings.webp",
    "name": "Dragon Wings",
    "type": "spell"
}
