{
    "_id": "znMvKqcRDilIVMwA",
    "data": {
        "ability": {
            "value": ""
        },
        "area": {
            "areaType": "",
            "value": null
        },
        "areasize": {
            "value": ""
        },
        "category": {
            "value": "spell"
        },
        "components": {
            "material": false,
            "somatic": true,
            "verbal": true
        },
        "cost": {
            "value": ""
        },
        "damage": {
            "value": {}
        },
        "description": {
            "value": "<p>To mislead pursuers, the Lacunafex developed the means to swap visages. You trade appearances with the target, with the effects depending on the result of the target's Will saving throw. Willing and @Compendium[pf2e.conditionitems.Unconscious]{Unconscious} targets automatically critically fail this saving throw.</p>\n<hr />\n<p><strong>Critical Success</strong> No effect.</p>\n<p><strong>Success</strong> You take on the target's appearance, and they take yours. This has the same effects as a 1st-level <em>@Compendium[pf2e.spells-srd.Illusory Disguise]{Illusory Disguise}</em> spell, except that the target can't Dismiss the disguise. The duration is 1 minute or until Dismissed.</p>\n<p><strong>Failure</strong> As success, but the duration is 1 hour or until Dismissed.</p>\n<p><strong>Critical Failure</strong> As success, but the duration is 24 hours.</p>"
        },
        "duration": {
            "value": "varies"
        },
        "hasCounteractCheck": {
            "value": false
        },
        "level": {
            "value": 1
        },
        "location": {
            "value": ""
        },
        "materials": {
            "value": "You have the humanoid trait"
        },
        "prepared": {
            "value": ""
        },
        "primarycheck": {
            "value": ""
        },
        "range": {
            "value": "touch"
        },
        "rules": [],
        "save": {
            "basic": "",
            "value": "will"
        },
        "school": {
            "value": "illusion"
        },
        "secondarycasters": {
            "value": ""
        },
        "secondarycheck": {
            "value": ""
        },
        "source": {
            "value": "Pathfinder #147: Tomorrow Must Burn"
        },
        "spellType": {
            "value": "save"
        },
        "sustained": {
            "value": false
        },
        "target": {
            "value": "you and 1 other humanoid"
        },
        "time": {
            "value": "2"
        },
        "traditions": {
            "custom": "",
            "value": [
                "arcane",
                "occult"
            ]
        },
        "traits": {
            "custom": "",
            "rarity": {
                "value": "uncommon"
            },
            "value": [
                "visual"
            ]
        }
    },
    "effects": [],
    "flags": {},
    "img": "systems/pf2e/icons/spells/exchange-image.webp",
    "name": "Exchange Image",
    "type": "spell"
}
