{
    "_id": "8cuqRFB3mWBOgy61",
    "data": {
        "ability": {
            "value": ""
        },
        "area": {
            "areaType": "",
            "value": ""
        },
        "autoHeightenLevel": {
            "value": null
        },
        "category": {
            "value": "spell"
        },
        "components": {
            "focus": false,
            "material": false,
            "somatic": true,
            "verbal": false
        },
        "cost": {
            "value": ""
        },
        "damage": {
            "applyMod": false,
            "value": {
                "0": {
                    "applyMod": false,
                    "type": {
                        "subtype": "",
                        "value": "mental"
                    },
                    "value": "3d8"
                }
            }
        },
        "description": {
            "value": "<p><strong>Trigger</strong> An ally within 20 feet of you makes a ranged attack roll.</p>\n<p>You create an illusory duplicate of your ally's ranged attack to confuse your opponents. You launch an illusory double of your ally's projectile or spell at the same target, leaving the enemy unsure which attack to avoid. The target takes 3d8 mental damage, depending on its Will save. Regardless of the result of its save, it's temporarily immune to <em>shadow projectile</em> spells for 1 hour.</p>\n<hr />\n<p><strong>Critical Success</strong> The creature is unaffected.</p>\n<p><strong>Success</strong> The creature is @Compendium[pf2e.conditionitems.Flat-Footed]{Flat-Footed} against the triggering attack.</p>\n<p><strong>Failure</strong> The creature is flat-footed against the triggering attack and takes full damage from your illusory projectile.</p>\n<p><strong>Critical Failure</strong> As failure, but double damage.</p>\n<hr />\n<p><strong>Heightened (+2)</strong> The damage increases by 1d8.</p>"
        },
        "duration": {
            "value": ""
        },
        "hasCounteractCheck": {
            "value": false
        },
        "level": {
            "value": 3
        },
        "location": {
            "value": ""
        },
        "materials": {
            "value": ""
        },
        "range": {
            "value": ""
        },
        "rules": [],
        "save": {
            "basic": "",
            "value": "will"
        },
        "scaling": {
            "damage": {
                "0": "1d8"
            },
            "interval": 2
        },
        "school": {
            "value": "illusion"
        },
        "source": {
            "value": "Pathfinder Secrets of Magic"
        },
        "spellType": {
            "value": "save"
        },
        "sustained": {
            "value": false
        },
        "target": {
            "value": ""
        },
        "time": {
            "value": "reaction"
        },
        "traditions": {
            "custom": "",
            "value": [
                "arcane",
                "occult"
            ]
        },
        "traits": {
            "custom": "",
            "rarity": {
                "value": "common"
            },
            "value": [
                "shadow",
                "visual"
            ]
        }
    },
    "effects": [],
    "flags": {},
    "img": "systems/pf2e/icons/spells/shadow-projectile.webp",
    "name": "Shadow Projectile",
    "type": "spell"
}
