{
    "_id": "2hLDilS6qbjHxgVS",
    "data": {
        "actionCategory": {
            "value": ""
        },
        "actionType": {
            "value": "passive"
        },
        "actions": {
            "value": null
        },
        "description": {
            "value": "<p>In addition to a beak, your mouth also features a number of vicious, pointed teeth. Some legends claim your powerful jaws can even bite through steel. While you aren't that strong yet, your fangs can still leave terrible wounds. Your beak unarmed attack gains the deadly d8 trait.</p>"
        },
        "featType": {
            "value": "heritage"
        },
        "level": {
            "value": 1
        },
        "location": "",
        "prerequisites": {
            "value": []
        },
        "rules": [],
        "source": {
            "value": ""
        },
        "traits": {
            "custom": "",
            "rarity": {
                "value": "common"
            },
            "value": [
                "tengu"
            ]
        }
    },
    "effects": [],
    "flags": {},
    "img": "systems/pf2e/icons/default-icons/feat.svg",
    "name": "Dogtooth Tengu",
    "type": "feat"
}
