{
    "_id": "gyoN45SVfRZwHMkk",
    "data": {
        "actionCategory": {
            "value": ""
        },
        "actionType": {
            "value": "passive"
        },
        "actions": {
            "value": null
        },
        "description": {
            "value": "<p>You can @Compendium[pf2e.actionspf2e.Subsist]{Subsist}on food that most folks would consider spoiled. You can keep yourself fed with poor meals in a settlement as long as garbage is readily available, without using the subsist downtime activity. You can eat and drink things when you are @Compendium[pf2e.conditionitems.Sickened]{Sickened}.</p>\n<p>You gain a +2 circumstance bonus to saving throws against afflictions, against gaining the sickened condition, and to remove the sickened condition. When you roll a success on a Fortitude save affected by this bonus, you get a critical success instead. All these benefits apply only when the affliction or condition resulted from something you ingested.</p>"
        },
        "featType": {
            "value": "heritage"
        },
        "level": {
            "value": 1
        },
        "location": "",
        "prerequisites": {
            "value": []
        },
        "rules": [
            {
                "key": "FlatModifier",
                "label": "Irongut Goblin (vs. afflictions & sickened)",
                "predicate": {
                    "all": [
                        "ingested"
                    ],
                    "any": [
                        "affliction",
                        "sickened"
                    ]
                },
                "selector": "saving-throw",
                "type": "circumstance",
                "value": 2
            },
            {
                "key": "Note",
                "predicate": {
                    "all": [
                        "ingested"
                    ],
                    "any": [
                        "affliction",
                        "sickened"
                    ]
                },
                "selector": "fortitude",
                "text": "<p class='compact-text'><strong>{item|name}</strong> If you roll a success on a save against an ingested affliction or to avoid gaining the sickened condition, treat it as a critical success</p>"
            }
        ],
        "source": {
            "value": ""
        },
        "traits": {
            "custom": "",
            "rarity": {
                "value": "common"
            },
            "selected": {
                "goblin": "Goblin"
            },
            "value": [
                "goblin"
            ]
        }
    },
    "effects": [],
    "flags": {},
    "img": "systems/pf2e/icons/features/ancestry/irongut-goblin.webp",
    "name": "Irongut Goblin",
    "type": "feat"
}
