{
    "_id": "4lLhGgG30TMu8tIx",
    "data": {
        "actionCategory": {
            "value": ""
        },
        "actionType": {
            "value": "passive"
        },
        "actions": {
            "value": null
        },
        "description": {
            "value": "<p><strong>[Slotless]</strong></p>\n<p><strong>Effect</strong>: You gain access to either the ranger feat @Compendium[pf2e.feats-srd.Relentless Stalker]{Relentless Stalker} or the skill feat @Compendium[pf2e.feats-srd.Wilderness Spotter]{Wilderness Spotter}. Once you have taken one of these feats, check the box next to this boon and cross the other one out.</p>"
        },
        "featType": {
            "value": "pfsboon"
        },
        "level": {
            "value": 0
        },
        "prerequisites": {
            "value": []
        },
        "rules": [],
        "source": {
            "value": ""
        },
        "traits": {
            "custom": "",
            "rarity": {
                "value": "common"
            },
            "value": []
        }
    },
    "effects": [],
    "flags": {},
    "img": "systems/pf2e/icons/default-icons/mystery-man.webp",
    "name": "FoP - Noala's Lessons",
    "type": "feat"
}
