{
    "_id": "KdV8UtN8Af5oCerj",
    "data": {
        "description": {
            "value": "<p>The barrister uses existing case law to undermine their opposition. If they succeed at a <span data-pf2-check=\"legal-lore\" data-pf2-dc=\"20\" data-pf2-traits=\"auditory,linguistic\" data-pf2-label=\"Cite Precedent DC\" data-pf2-show-dc=\"gm\">Legal Lore</span> check, they impose a -2 circumstance penalty on the next Diplomacy check an opponent attempts in a legal argument.</p>\n<p>Any further attempts to Cite Precedent fail until a new topic with different precedents is being argued.</p>"
        },
        "duration": {
            "expiry": "turn-start",
            "sustained": false,
            "unit": "unlimited",
            "value": -1
        },
        "level": {
            "value": 1
        },
        "rules": [
            {
                "key": "FlatModifier",
                "selector": "diplomacy",
                "type": "circumstance",
                "value": -2
            }
        ],
        "source": {
            "value": "Pathfinder Gamemastery Guide"
        },
        "start": {
            "initiative": null,
            "value": 0
        },
        "target": null,
        "tokenIcon": {
            "show": true
        },
        "traits": {
            "custom": "",
            "rarity": {
                "value": "common"
            },
            "value": []
        }
    },
    "effects": [],
    "flags": {},
    "img": "systems/pf2e/icons/spells/abyssal-pact.webp",
    "name": "Effect: Cite Precedent",
    "type": "effect"
}
