{
    "_id": "bQhNDVpMJ5MEoFu1",
    "data": {
        "description": {
            "value": ""
        },
        "duration": {
            "expiry": "turn-start",
            "sustained": false,
            "unit": "minutes",
            "value": 1
        },
        "level": {
            "value": 1
        },
        "rules": [
            {
                "domain": "all",
                "key": "RollOption",
                "option": "npc-rage"
            },
            {
                "key": "TempHP",
                "label": "Rage",
                "value": "@details.level.value + @abilities.con.mod + @custom.modifiers.rageMod"
            },
            {
                "key": "ActiveEffectLike",
                "mode": "add",
                "path": "data.custom.modifiers.rageMod",
                "value": 0
            }
        ],
        "source": {
            "value": "Pathfinder Bestiary"
        },
        "start": {
            "initiative": null,
            "value": 0
        },
        "target": null,
        "tokenIcon": {
            "show": true
        },
        "traits": {
            "custom": "",
            "rarity": {
                "value": "common"
            },
            "value": []
        }
    },
    "effects": [],
    "flags": {},
    "img": "systems/pf2e/icons/features/classes/rage.webp",
    "name": "Effect: NPC Rage",
    "type": "effect"
}
