{
    "_id": "mpiUTv0lciVJkdqr",
    "content": "<p>Play at the start of your turn.</p>\n<hr />\n<p>Until the end of your turn, you gain @Compendium[pf2e.feats-srd.Automatic Knowledge]{Automatic Knowledge} for any one skill. If you already have Automatic Knowledge, when you use that feat to attempt a Recall Knowledge check this turn, use an outcome one degree of success better than the result of your roll. If you use this to learn about a creature, you gain twice the number of clues about its abilities.</p>",
    "flags": {},
    "name": "Flash of Insight",
    "permission": {
        "default": 0
    }
}
