{
    "_id": "WWvqHSAYOw4ysn3e",
    "data": {
        "attributes": {
            "ac": {
                "check": 0,
                "details": "",
                "value": 11
            },
            "collisionDC": {
                "value": 15
            },
            "collisionDamage": {
                "value": "2d6"
            },
            "hardness": 5,
            "hp": {
                "brokenThreshold": 5,
                "details": "",
                "max": 18,
                "temp": 0,
                "value": 18
            }
        },
        "details": {
            "AC": 0,
            "crew": "1 pilot",
            "description": "",
            "level": {
                "value": 1
            },
            "passengers": "1",
            "pilotingCheck": "Driving Lore (DC 15) or Nature (DC 17 to DC 25, depending on pulling creature)",
            "price": "50",
            "space": {
                "high": 4,
                "long": 10,
                "wide": 5
            },
            "speed": "the Speed of the slowest pulling creature (pulled by 2 Large creatures or 6 Medium creatures)"
        },
        "saves": {
            "fortitude": {
                "item": 0,
                "rank": 0,
                "saveDetail": "",
                "value": 7
            }
        },
        "source": {
            "value": "Pathfinder Gamemastery Guide"
        },
        "traits": {
            "ci": [],
            "di": {
                "custom": "",
                "value": [
                    "critical-hits",
                    "object-immunities",
                    "precision"
                ]
            },
            "dr": [],
            "dv": [],
            "rarity": {
                "value": "common"
            },
            "size": {
                "value": "lg"
            },
            "traits": {
                "custom": "",
                "value": []
            }
        }
    },
    "effects": [],
    "flags": {},
    "img": "systems/pf2e/icons/default-icons/vehicle.svg",
    "items": [
        {
            "_id": "XvCWEJlIIDSfz2EA",
            "data": {
                "actionCategory": {
                    "value": "interaction"
                },
                "actionType": {
                    "value": "passive"
                },
                "actions": {
                    "value": null
                },
                "description": {
                    "value": "<p>Ice and snow are not difficult terrain to a sleigh, but all other terrains are difficult terrain for it.</p>"
                },
                "requirements": {
                    "value": ""
                },
                "rules": [],
                "slug": null,
                "source": {
                    "value": ""
                },
                "traits": {
                    "custom": "",
                    "rarity": {
                        "value": "common"
                    },
                    "value": []
                },
                "trigger": {
                    "value": ""
                },
                "weapon": {
                    "value": ""
                }
            },
            "effects": [],
            "flags": {},
            "img": "systems/pf2e/icons/actions/Passive.webp",
            "name": "Ice Traverser",
            "sort": 0,
            "type": "action"
        },
        {
            "_id": "Buxx8NC3JQzeLsjs",
            "data": {
                "actionCategory": {
                    "value": "interaction"
                },
                "actionType": {
                    "value": "passive"
                },
                "actions": {
                    "value": null
                },
                "description": {
                    "value": "<p>This vehicle must move twice its length for each 90-degree turn it makes.</p>"
                },
                "requirements": {
                    "value": ""
                },
                "rules": [],
                "slug": null,
                "source": {
                    "value": ""
                },
                "traits": {
                    "custom": "",
                    "rarity": {
                        "value": "common"
                    },
                    "value": []
                },
                "trigger": {
                    "value": ""
                },
                "weapon": {
                    "value": ""
                }
            },
            "effects": [],
            "flags": {},
            "img": "systems/pf2e/icons/actions/Passive.webp",
            "name": "Sluggish",
            "sort": 0,
            "type": "action"
        }
    ],
    "name": "Sleigh",
    "token": {
        "disposition": 0,
        "height": 2,
        "img": "systems/pf2e/icons/default-icons/vehicle.svg",
        "name": "Sleigh",
        "width": 1
    },
    "type": "vehicle"
}
