{
    "_id": "fUJ1RB9l9DppWdCH",
    "data": {
        "attributes": {
            "ac": {
                "check": 0,
                "details": "",
                "value": 34
            },
            "collisionDC": {
                "value": 32
            },
            "collisionDamage": {
                "value": "9d12"
            },
            "hardness": 20,
            "hp": {
                "brokenThreshold": 5,
                "details": "",
                "max": 230,
                "temp": 0,
                "value": 230
            }
        },
        "details": {
            "AC": 0,
            "crew": "1 pilot, 3 crew",
            "description": "<p>Among the most dangerous vehicles created in Ustalav with a mix of magic and the new Stasian technology, a titanic stomper is shaped like a long sinuous lizard or behir with carefully placed Stasian coils and eight big stomping legs. Titanic stompers were meant to devastate the armies of the undead. Only two exist, making them almost unique, and the means to create more have been stymied, as some of the crucial inventors were killed in the process of attempting to design a follow-up technology, a smaller but more powerful suit of mechanized armor called the Grobelarch that ultimately went berserk and killed its creators.</p>",
            "level": {
                "value": 15
            },
            "passengers": "6",
            "pilotingCheck": "Driving Lore (DC 34) or Crafting",
            "price": 19000,
            "space": {
                "high": 60,
                "long": 60,
                "wide": 30
            },
            "speed": "40 feet, (electrical, magical)"
        },
        "saves": {
            "fortitude": {
                "item": 0,
                "rank": 0,
                "saveDetail": "",
                "value": 26
            }
        },
        "source": {
            "value": "Pathfinder Guns & Gears"
        },
        "traits": {
            "ci": [],
            "di": {
                "custom": "",
                "value": [
                    "critical-hits",
                    "object-immunities",
                    "precision"
                ]
            },
            "dr": [
                {
                    "exceptions": "",
                    "type": "electricity",
                    "value": 20
                }
            ],
            "dv": [],
            "rarity": {
                "value": "rare"
            },
            "size": {
                "value": "grg"
            },
            "traits": {
                "custom": "",
                "value": []
            }
        }
    },
    "effects": [],
    "flags": {},
    "img": "systems/pf2e/icons/default-icons/vehicle.svg",
    "items": [
        {
            "_id": "vDMm6mf0S2i9JMzd",
            "data": {
                "actionCategory": {
                    "value": "interaction"
                },
                "actionType": {
                    "value": "action"
                },
                "actions": {
                    "value": 3
                },
                "description": {
                    "value": "<p>Two crew members each perform a three-action activity on their turn to fire a line of lightning at the end of the second character's turn. This line of lightning erupts from the front of the titanic stomper at an angle of the crew members' choice and deals [[/r {5d12}[electricity]]]{5d12 Electricity Damage} to each creature in a 120-foot line (<span data-pf2-check=\"reflex\" data-pf2-traits=\"\" data-pf2-label=\"Avoid the blast DC\" data-pf2-dc=\"34\" data-pf2-show-dc=\"gm\">basic Reflex</span>). The Bolt Blast stops working if the titanic stomper is @Compendium[pf2e.conditionitems.Broken]{Broken}.</p>"
                },
                "requirements": {
                    "value": ""
                },
                "rules": [],
                "slug": null,
                "source": {
                    "value": ""
                },
                "traits": {
                    "custom": "",
                    "rarity": {
                        "value": "common"
                    },
                    "value": []
                },
                "trigger": {
                    "value": ""
                }
            },
            "effects": [],
            "flags": {},
            "img": "systems/pf2e/icons/actions/ThreeActions.webp",
            "name": "Bolt Blast",
            "sort": 0,
            "type": "action"
        },
        {
            "_id": "QUHIpCfam8YMHy6U",
            "data": {
                "actionCategory": {
                    "value": ""
                },
                "actionType": {
                    "value": "reaction"
                },
                "actions": {
                    "value": null
                },
                "description": {
                    "value": "<p><strong>Trigger</strong> The titanic stomper is targeted by, or in the area of, an effect that deals electricity damage;</p>\n<p><strong>Effect</strong> The pilot uses their reaction to activate the Stasian coils, which funnels the electricity into the titanic stomper's electrical engine. The next time Bolt Blast is used within the next minute, the damage it deals increases to [[/r {7d12}[electricity]]]{7d12 Electricity Damage}.</p>"
                },
                "requirements": {
                    "value": ""
                },
                "rules": [],
                "slug": null,
                "source": {
                    "value": ""
                },
                "traits": {
                    "custom": "",
                    "rarity": {
                        "value": "common"
                    },
                    "value": []
                },
                "trigger": {
                    "value": ""
                }
            },
            "effects": [],
            "flags": {},
            "img": "systems/pf2e/icons/actions/Reaction.webp",
            "name": "Electrical Absorption",
            "sort": 0,
            "type": "action"
        },
        {
            "_id": "lTX8qPMdwaThuCnc",
            "data": {
                "actionCategory": {
                    "value": ""
                },
                "actionType": {
                    "value": "passive"
                },
                "actions": {
                    "value": null
                },
                "description": {
                    "value": "<p>The ground shakes with every step a titanic stomper takes. Whenever this vehicle moves, creatures on the ground within 20 feet of its movement path must attempt a <span data-pf2-check=\"reflex\" data-pf2-traits=\"\" data-pf2-label=\"Stay standing DC\" data-pf2-dc=\"32\" data-pf2-show-dc=\"gm\">Reflex</span>. On a failure, they are @Compendium[pf2e.conditionitems.Flat-Footed]{Flat-Footed} for 1 round, and on a critical failure, they're knocked @Compendium[pf2e.conditionitems.Prone]{Prone}.</p>"
                },
                "requirements": {
                    "value": ""
                },
                "rules": [],
                "slug": null,
                "source": {
                    "value": ""
                },
                "traits": {
                    "custom": "",
                    "rarity": {
                        "value": "common"
                    },
                    "value": []
                },
                "trigger": {
                    "value": ""
                }
            },
            "effects": [],
            "flags": {},
            "img": "systems/pf2e/icons/actions/Passive.webp",
            "name": "Quaking Step",
            "sort": 0,
            "type": "action"
        }
    ],
    "name": "Titanic Stomper",
    "token": {
        "disposition": 0,
        "height": 12,
        "img": "systems/pf2e/icons/default-icons/vehicle.svg",
        "name": "Titanic Stomper",
        "width": 6
    },
    "type": "vehicle"
}
