{
    "_id": "wGjNDVC0mDsk7rrH",
    "data": {
        "attributes": {
            "ac": {
                "value": 16
            },
            "hardness": 0,
            "hasHealth": true,
            "hp": {
                "details": "",
                "max": 24,
                "temp": 0,
                "value": 24
            },
            "stealth": {
                "details": "<p>(trained)</p>",
                "value": 8
            }
        },
        "creatureType": "",
        "details": {
            "description": "<p>A pile of volatile fireworks.</p>",
            "disable": "<p>Craft DC 18 (trained), Engineering Lore DC 16 (trained), or Explosives Lore DC 16 (trained) to safely remove the lit firework or Thievery DC 18 (trained) to remove the lit fuse from the firework.</p>",
            "isComplex": false,
            "level": {
                "value": 2
            },
            "reset": "",
            "routine": ""
        },
        "saves": {
            "fortitude": {
                "saveDetail": "",
                "value": 2
            },
            "reflex": {
                "saveDetail": "",
                "value": 2
            },
            "will": {
                "saveDetail": "",
                "value": 0
            }
        },
        "source": {
            "value": "Pathfinder Society Quest 5: The Dragon who Stole Evoking Day"
        },
        "statusEffects": [],
        "traits": {
            "ci": [],
            "di": {
                "custom": "",
                "selected": {},
                "value": [
                    "critical-hits",
                    "object-immunities",
                    "precision"
                ]
            },
            "dr": [],
            "dv": [],
            "rarity": {
                "value": "common"
            },
            "size": {
                "value": "med"
            },
            "traits": {
                "custom": "",
                "value": [
                    "mechanical",
                    "trap"
                ]
            }
        }
    },
    "effects": [],
    "flags": {},
    "img": "systems/pf2e/icons/default-icons/hazard.svg",
    "items": [
        {
            "_id": "c9FZbqKa82gtTjP3",
            "data": {
                "actionCategory": {
                    "value": "offensive"
                },
                "actionType": {
                    "value": "reaction"
                },
                "actions": {
                    "value": null
                },
                "description": {
                    "value": "<p data-visibility=\"gm\"><strong>Trigger</strong> The pile of fireworks takes acid or fire damage.</p>\n<p><strong>Effect</strong> The fuse of one of the fireworks begins to burn and the pile of fireworks enters initiative immediately before the triggering creature or effect.</p>"
                },
                "requirements": {
                    "value": ""
                },
                "rules": [],
                "slug": null,
                "source": {
                    "value": ""
                },
                "traits": {
                    "custom": "",
                    "rarity": {
                        "value": "common"
                    },
                    "value": []
                },
                "trigger": {
                    "value": ""
                },
                "weapon": {
                    "value": ""
                }
            },
            "effects": [],
            "flags": {},
            "img": "systems/pf2e/icons/actions/Reaction.webp",
            "name": "Light Fuse",
            "sort": 0,
            "type": "action"
        },
        {
            "_id": "KTk8KdzrL2MoJzR8",
            "data": {
                "actionCategory": {
                    "value": "offensive"
                },
                "actionType": {
                    "value": "free"
                },
                "actions": {
                    "value": null
                },
                "description": {
                    "value": "<p data-visibility=\"gm\"><strong>Trigger</strong> The pile of fireworks begins its turn.</p>\n<p><strong>Effect</strong> The pile of fireworks explodes, dealing [[/r {4d8}[fire]]]{4d8 fire damage} (<span data-pf2-check=\"reflex\" data-pf2-traits=\"damaging-effect\" data-pf2-label=\"Explosive Blast DC\" data-pf2-dc=\"22\" data-pf2-show-dc=\"gm\">basic Reflex</span>) save to all creatures within 15 feet.</p>"
                },
                "requirements": {
                    "value": ""
                },
                "rules": [],
                "slug": null,
                "source": {
                    "value": ""
                },
                "traits": {
                    "custom": "",
                    "rarity": {
                        "value": "common"
                    },
                    "value": []
                },
                "trigger": {
                    "value": ""
                },
                "weapon": {
                    "value": ""
                }
            },
            "effects": [],
            "flags": {},
            "img": "systems/pf2e/icons/actions/FreeAction.webp",
            "name": "Explosive Blast",
            "sort": 0,
            "type": "action"
        }
    ],
    "name": "Pile of Fireworks (3-4)",
    "token": {
        "disposition": 0,
        "height": 1,
        "img": "systems/pf2e/icons/default-icons/hazard.svg",
        "name": "Pile of Fireworks",
        "width": 1
    },
    "type": "hazard"
}
